^E:\SOURCE\REPOS\DNGOINS\HOLOREMOTING\REMOTINGHOSTSAMPLE\REMOTINGHOSTSAMPLESHARED\CONTENT\SIMPLELIGHTINGPIXELSHADER.HLSL
/nologo /E"main" /T ps_5_0 /Fo "E:\Source\Repos\dngoins\holoremoting\RemotingHostSample\bin\x64Debug\RemotingHostSampleDesktop\SimpleLightingPixelShader.cso" /Od /Zi E:\SOURCE\REPOS\DNGOINS\HOLOREMOTING\REMOTINGHOSTSAMPLE\REMOTINGHOSTSAMPLESHARED\CONTENT\SIMPLELIGHTINGPIXELSHADER.HLSL
^E:\SOURCE\REPOS\DNGOINS\HOLOREMOTING\REMOTINGHOSTSAMPLE\REMOTINGHOSTSAMPLESHARED\CONTENT\SOLIDCOLORPIXELSHADER.HLSL
/nologo /E"main" /T ps_5_0 /Fo "E:\Source\Repos\dngoins\holoremoting\RemotingHostSample\bin\x64Debug\RemotingHostSampleDesktop\SolidColorPixelShader.cso" /Od /Zi E:\SOURCE\REPOS\DNGOINS\HOLOREMOTING\REMOTINGHOSTSAMPLE\REMOTINGHOSTSAMPLESHARED\CONTENT\SOLIDCOLORPIXELSHADER.HLSL
^E:\SOURCE\REPOS\DNGOINS\HOLOREMOTING\REMOTINGHOSTSAMPLE\REMOTINGHOSTSAMPLESHARED\CONTENT\SURFACEGEOMETRYSHADER.HLSL
/nologo /E"main" /T gs_5_0 /Fo "E:\Source\Repos\dngoins\holoremoting\RemotingHostSample\bin\x64Debug\RemotingHostSampleDesktop\SurfaceGeometryShader.cso" /Od /Zi E:\SOURCE\REPOS\DNGOINS\HOLOREMOTING\REMOTINGHOSTSAMPLE\REMOTINGHOSTSAMPLESHARED\CONTENT\SURFACEGEOMETRYSHADER.HLSL
^E:\SOURCE\REPOS\DNGOINS\HOLOREMOTING\REMOTINGHOSTSAMPLE\REMOTINGHOSTSAMPLESHARED\CONTENT\SURFACEVERTEXSHADER.HLSL
/nologo /E"main" /T vs_5_0 /Fo "E:\Source\Repos\dngoins\holoremoting\RemotingHostSample\bin\x64Debug\RemotingHostSampleDesktop\SurfaceVertexShader.cso" /Od /Zi E:\SOURCE\REPOS\DNGOINS\HOLOREMOTING\REMOTINGHOSTSAMPLE\REMOTINGHOSTSAMPLESHARED\CONTENT\SURFACEVERTEXSHADER.HLSL
^E:\SOURCE\REPOS\DNGOINS\HOLOREMOTING\REMOTINGHOSTSAMPLE\REMOTINGHOSTSAMPLESHARED\CONTENT\SURFACEVPRTVERTEXSHADER.HLSL
/nologo /E"main" /T vs_5_0 /Fo "E:\Source\Repos\dngoins\holoremoting\RemotingHostSample\bin\x64Debug\RemotingHostSampleDesktop\SurfaceVPRTVertexShader.cso" /Od /Zi E:\SOURCE\REPOS\DNGOINS\HOLOREMOTING\REMOTINGHOSTSAMPLE\REMOTINGHOSTSAMPLESHARED\CONTENT\SURFACEVPRTVERTEXSHADER.HLSL
^E:\SOURCE\REPOS\DNGOINS\HOLOREMOTING\REMOTINGHOSTSAMPLE\REMOTINGHOSTSAMPLESHARED\MODELGEOMETRYSHADER.HLSL
/nologo /E"main" /T gs_4_0 /Fo "E:\Source\Repos\dngoins\holoremoting\RemotingHostSample\bin\x64Debug\RemotingHostSampleDesktop\ModelGeometryShader.cso" /Od /Zi E:\SOURCE\REPOS\DNGOINS\HOLOREMOTING\REMOTINGHOSTSAMPLE\REMOTINGHOSTSAMPLESHARED\MODELGEOMETRYSHADER.HLSL
^E:\SOURCE\REPOS\DNGOINS\HOLOREMOTING\REMOTINGHOSTSAMPLE\REMOTINGHOSTSAMPLESHARED\MODELPIXELSHADER.HLSL
/nologo /E"main" /T ps_5_0 /Fo "E:\Source\Repos\dngoins\holoremoting\RemotingHostSample\bin\x64Debug\RemotingHostSampleDesktop\ModelPixelShader.cso" /Od /Zi E:\SOURCE\REPOS\DNGOINS\HOLOREMOTING\REMOTINGHOSTSAMPLE\REMOTINGHOSTSAMPLESHARED\MODELPIXELSHADER.HLSL
^E:\SOURCE\REPOS\DNGOINS\HOLOREMOTING\REMOTINGHOSTSAMPLE\REMOTINGHOSTSAMPLESHARED\MODELVERTEXSHADER.HLSL
/nologo /E"main" /T vs_5_0 /Fo "E:\Source\Repos\dngoins\holoremoting\RemotingHostSample\bin\x64Debug\RemotingHostSampleDesktop\ModelVertexShader.cso" /Od /Zi E:\SOURCE\REPOS\DNGOINS\HOLOREMOTING\REMOTINGHOSTSAMPLE\REMOTINGHOSTSAMPLESHARED\MODELVERTEXSHADER.HLSL
^E:\SOURCE\REPOS\DNGOINS\HOLOREMOTING\REMOTINGHOSTSAMPLE\REMOTINGHOSTSAMPLESHARED\VPRTMODELVERTEXSHADER.HLSL
/nologo /E"main" /T vs_5_0 /Fo "E:\Source\Repos\dngoins\holoremoting\RemotingHostSample\bin\x64Debug\RemotingHostSampleDesktop\VPRTModelVertexShader.cso" /Od /Zi E:\SOURCE\REPOS\DNGOINS\HOLOREMOTING\REMOTINGHOSTSAMPLE\REMOTINGHOSTSAMPLESHARED\VPRTMODELVERTEXSHADER.HLSL
^E:\SOURCE\REPOS\DNGOINS\HOLOREMOTING\REMOTINGHOSTSAMPLE\REMOTINGHOSTSAMPLESHARED\CONTENT\GEOMETRYSHADER.HLSL
/nologo /E"main" /T gs_4_0 /Fo "E:\Source\Repos\dngoins\holoremoting\RemotingHostSample\bin\x64Debug\RemotingHostSampleDesktop\GeometryShader.cso" /Od /Zi E:\SOURCE\REPOS\DNGOINS\HOLOREMOTING\REMOTINGHOSTSAMPLE\REMOTINGHOSTSAMPLESHARED\CONTENT\GEOMETRYSHADER.HLSL
^E:\SOURCE\REPOS\DNGOINS\HOLOREMOTING\REMOTINGHOSTSAMPLE\REMOTINGHOSTSAMPLESHARED\CONTENT\PIXELSHADER.HLSL
/nologo /E"main" /T ps_4_0 /Fo "E:\Source\Repos\dngoins\holoremoting\RemotingHostSample\bin\x64Debug\RemotingHostSampleDesktop\PixelShader.cso" /Od /Zi E:\SOURCE\REPOS\DNGOINS\HOLOREMOTING\REMOTINGHOSTSAMPLE\REMOTINGHOSTSAMPLESHARED\CONTENT\PIXELSHADER.HLSL
^E:\SOURCE\REPOS\DNGOINS\HOLOREMOTING\REMOTINGHOSTSAMPLE\REMOTINGHOSTSAMPLESHARED\CONTENT\VERTEXSHADER.HLSL
/nologo /E"main" /T vs_4_0 /Fo "E:\Source\Repos\dngoins\holoremoting\RemotingHostSample\bin\x64Debug\RemotingHostSampleDesktop\VertexShader.cso" /Od /Zi E:\SOURCE\REPOS\DNGOINS\HOLOREMOTING\REMOTINGHOSTSAMPLE\REMOTINGHOSTSAMPLESHARED\CONTENT\VERTEXSHADER.HLSL
^E:\SOURCE\REPOS\DNGOINS\HOLOREMOTING\REMOTINGHOSTSAMPLE\REMOTINGHOSTSAMPLESHARED\CONTENT\VPRTVERTEXSHADER.HLSL
/nologo /E"main" /T vs_4_0 /Fo "E:\Source\Repos\dngoins\holoremoting\RemotingHostSample\bin\x64Debug\RemotingHostSampleDesktop\VPRTVertexShader.cso" /Od /Zi E:\SOURCE\REPOS\DNGOINS\HOLOREMOTING\REMOTINGHOSTSAMPLE\REMOTINGHOSTSAMPLESHARED\CONTENT\VPRTVERTEXSHADER.HLSL
