^E:\SOURCE\REPOS\DNGOINS\HOLOREMOTING\REMOTINGHOSTSAMPLE\REMOTINGHOSTSAMPLEDESKTOP\REMOTINGHOSTSAMPLEDESKTOP.RC
E:\SOURCE\REPOS\DNGOINS\HOLOREMOTING\REMOTINGHOSTSAMPLE\REMOTINGHOSTSAMPLEDESKTOP\RESOURCE.H
E:\SOURCE\REPOS\DNGOINS\HOLOREMOTING\REMOTINGHOSTSAMPLE\REMOTINGHOSTSAMPLEDESKTOP\TARGETVER.H
C:\PROGRAM FILES (X86)\WINDOWS KITS\10\INCLUDE\10.0.10586.0\SHARED\SDKDDKVER.H
C:\PROGRAM FILES (X86)\WINDOWS KITS\10\INCLUDE\10.0.10586.0\UM\WINDOWS.H
C:\PROGRAM FILES (X86)\WINDOWS KITS\10\INCLUDE\10.0.10586.0\SHARED\WINAPIFAMILY.H
C:\PROGRAM FILES (X86)\WINDOWS KITS\10\INCLUDE\10.0.10586.0\SHARED\WINPACKAGEFAMILY.H
C:\PROGRAM FILES (X86)\WINDOWS KITS\10\INCLUDE\10.0.10586.0\UM\WINRESRC.H
C:\PROGRAM FILES (X86)\WINDOWS KITS\10\INCLUDE\10.0.10586.0\UM\WINUSER.RH
C:\PROGRAM FILES (X86)\WINDOWS KITS\10\INCLUDE\10.0.10586.0\UM\COMMCTRL.RH
C:\PROGRAM FILES (X86)\WINDOWS KITS\10\INCLUDE\10.0.10586.0\UM\DDE.RH
C:\PROGRAM FILES (X86)\WINDOWS KITS\10\INCLUDE\10.0.10586.0\UM\WINNT.RH
C:\PROGRAM FILES (X86)\WINDOWS KITS\10\INCLUDE\10.0.10586.0\UM\DLGS.H
C:\PROGRAM FILES (X86)\WINDOWS KITS\10\INCLUDE\10.0.10586.0\UM\WINVER.H
C:\PROGRAM FILES (X86)\WINDOWS KITS\10\INCLUDE\10.0.10586.0\SHARED\SPECSTRINGS.H
E:\PROGRAM FILES (X86)\MICROSOFT VISUAL STUDIO 14.0\VC\INCLUDE\SAL.H
E:\PROGRAM FILES (X86)\MICROSOFT VISUAL STUDIO 14.0\VC\INCLUDE\CONCURRENCYSAL.H
C:\PROGRAM FILES (X86)\WINDOWS KITS\10\INCLUDE\10.0.10586.0\SHARED\DRIVERSPECS.H
C:\PROGRAM FILES (X86)\WINDOWS KITS\10\INCLUDE\10.0.10586.0\SHARED\SDV_DRIVERSPECS.H
C:\PROGRAM FILES (X86)\WINDOWS KITS\10\INCLUDE\10.0.10586.0\UM\VERRSRC.H
E:\SOURCE\REPOS\DNGOINS\HOLOREMOTING\REMOTINGHOSTSAMPLE\REMOTINGHOSTSAMPLEDESKTOP\REMOTINGHOSTSAMPLEDESKTOP.ICO
E:\SOURCE\REPOS\DNGOINS\HOLOREMOTING\REMOTINGHOSTSAMPLE\REMOTINGHOSTSAMPLEDESKTOP\SMALL.ICO
