^C:\USERS\DNGOI\SOURCE\REPOS\DNGOINS\DIRECTX-ESSENTIALS-LIVELESSONS\SOURCE\LIBRARY\BLENDSTATES.CPP|C:\USERS\DNGOI\SOURCE\REPOS\DNGOINS\DIRECTX-ESSENTIALS-LIVELESSONS\SOURCE\LIBRARY\CAMERA.CPP|C:\USERS\DNGOI\SOURCE\REPOS\DNGOINS\DIRECTX-ESSENTIALS-LIVELESSONS\SOURCE\LIBRARY\COLORHELPER.CPP|C:\USERS\DNGOI\SOURCE\REPOS\DNGOINS\DIRECTX-ESSENTIALS-LIVELESSONS\SOURCE\LIBRARY\DIRECTIONALLIGHT.CPP|C:\USERS\DNGOI\SOURCE\REPOS\DNGOINS\DIRECTX-ESSENTIALS-LIVELESSONS\SOURCE\LIBRARY\DRAWABLEGAMECOMPONENT.CPP|C:\USERS\DNGOI\SOURCE\REPOS\DNGOINS\DIRECTX-ESSENTIALS-LIVELESSONS\SOURCE\LIBRARY\FIRSTPERSONCAMERA.CPP|C:\USERS\DNGOI\SOURCE\REPOS\DNGOINS\DIRECTX-ESSENTIALS-LIVELESSONS\SOURCE\LIBRARY\FPSCOMPONENT.CPP|C:\USERS\DNGOI\SOURCE\REPOS\DNGOINS\DIRECTX-ESSENTIALS-LIVELESSONS\SOURCE\LIBRARY\GAME.CPP|C:\USERS\DNGOI\SOURCE\REPOS\DNGOINS\DIRECTX-ESSENTIALS-LIVELESSONS\SOURCE\LIBRARY\GAMECLOCK.CPP|C:\USERS\DNGOI\SOURCE\REPOS\DNGOINS\DIRECTX-ESSENTIALS-LIVELESSONS\SOURCE\LIBRARY\GAMECOMPONENT.CPP|C:\USERS\DNGOI\SOURCE\REPOS\DNGOINS\DIRECTX-ESSENTIALS-LIVELESSONS\SOURCE\LIBRARY\GAMEEXCEPTION.CPP|C:\USERS\DNGOI\SOURCE\REPOS\DNGOINS\DIRECTX-ESSENTIALS-LIVELESSONS\SOURCE\LIBRARY\GAMETIME.CPP|C:\USERS\DNGOI\SOURCE\REPOS\DNGOINS\DIRECTX-ESSENTIALS-LIVELESSONS\SOURCE\LIBRARY\GRID.CPP|C:\USERS\DNGOI\SOURCE\REPOS\DNGOINS\DIRECTX-ESSENTIALS-LIVELESSONS\SOURCE\LIBRARY\KEYBOARD.CPP|C:\USERS\DNGOI\SOURCE\REPOS\DNGOINS\DIRECTX-ESSENTIALS-LIVELESSONS\SOURCE\LIBRARY\LIGHT.CPP|C:\USERS\DNGOI\SOURCE\REPOS\DNGOINS\DIRECTX-ESSENTIALS-LIVELESSONS\SOURCE\LIBRARY\MATRIXHELPER.CPP|C:\USERS\DNGOI\SOURCE\REPOS\DNGOINS\DIRECTX-ESSENTIALS-LIVELESSONS\SOURCE\LIBRARY\MESH.CPP|C:\USERS\DNGOI\SOURCE\REPOS\DNGOINS\DIRECTX-ESSENTIALS-LIVELESSONS\SOURCE\LIBRARY\MODEL.CPP|C:\USERS\DNGOI\SOURCE\REPOS\DNGOINS\DIRECTX-ESSENTIALS-LIVELESSONS\SOURCE\LIBRARY\MODELMATERIAL.CPP|C:\USERS\DNGOI\SOURCE\REPOS\DNGOINS\DIRECTX-ESSENTIALS-LIVELESSONS\SOURCE\LIBRARY\MOUSE.CPP|C:\USERS\DNGOI\SOURCE\REPOS\DNGOINS\DIRECTX-ESSENTIALS-LIVELESSONS\SOURCE\LIBRARY\POINTLIGHT.CPP|C:\USERS\DNGOI\SOURCE\REPOS\DNGOINS\DIRECTX-ESSENTIALS-LIVELESSONS\SOURCE\LIBRARY\PROXYMODEL.CPP|C:\USERS\DNGOI\SOURCE\REPOS\DNGOINS\DIRECTX-ESSENTIALS-LIVELESSONS\SOURCE\LIBRARY\RASTERIZERSTATES.CPP|C:\USERS\DNGOI\SOURCE\REPOS\DNGOINS\DIRECTX-ESSENTIALS-LIVELESSONS\SOURCE\LIBRARY\RENDERSTATEHELPER.CPP|C:\USERS\DNGOI\SOURCE\REPOS\DNGOINS\DIRECTX-ESSENTIALS-LIVELESSONS\SOURCE\LIBRARY\RENDERTARGET.CPP|C:\USERS\DNGOI\SOURCE\REPOS\DNGOINS\DIRECTX-ESSENTIALS-LIVELESSONS\SOURCE\LIBRARY\SAMPLERSTATES.CPP|C:\USERS\DNGOI\SOURCE\REPOS\DNGOINS\DIRECTX-ESSENTIALS-LIVELESSONS\SOURCE\LIBRARY\SERVICECONTAINER.CPP|C:\USERS\DNGOI\SOURCE\REPOS\DNGOINS\DIRECTX-ESSENTIALS-LIVELESSONS\SOURCE\LIBRARY\SKYBOX.CPP|C:\USERS\DNGOI\SOURCE\REPOS\DNGOINS\DIRECTX-ESSENTIALS-LIVELESSONS\SOURCE\LIBRARY\SPOTLIGHT.CPP|C:\USERS\DNGOI\SOURCE\REPOS\DNGOINS\DIRECTX-ESSENTIALS-LIVELESSONS\SOURCE\LIBRARY\UTILITY.CPP|C:\USERS\DNGOI\SOURCE\REPOS\DNGOINS\DIRECTX-ESSENTIALS-LIVELESSONS\SOURCE\LIBRARY\VECTORHELPER.CPP
C:\USERS\DNGOI\SOURCE\REPOS\DNGOINS\DIRECTX-ESSENTIALS-LIVELESSONS\SOURCE\LIBRARY\OBJ\DEBUG\LIBRARY.PDB
C:\USERS\DNGOI\SOURCE\REPOS\DNGOINS\DIRECTX-ESSENTIALS-LIVELESSONS\SOURCE\LIBRARY\OBJ\DEBUG\LIBRARY.IDB
C:\USERS\DNGOI\SOURCE\REPOS\DNGOINS\DIRECTX-ESSENTIALS-LIVELESSONS\SOURCE\LIBRARY\OBJ\DEBUG\GAMETIME.OBJ
C:\USERS\DNGOI\SOURCE\REPOS\DNGOINS\DIRECTX-ESSENTIALS-LIVELESSONS\SOURCE\LIBRARY\OBJ\DEBUG\GRID.OBJ
C:\USERS\DNGOI\SOURCE\REPOS\DNGOINS\DIRECTX-ESSENTIALS-LIVELESSONS\SOURCE\LIBRARY\OBJ\DEBUG\KEYBOARD.OBJ
C:\USERS\DNGOI\SOURCE\REPOS\DNGOINS\DIRECTX-ESSENTIALS-LIVELESSONS\SOURCE\LIBRARY\OBJ\DEBUG\LIGHT.OBJ
C:\USERS\DNGOI\SOURCE\REPOS\DNGOINS\DIRECTX-ESSENTIALS-LIVELESSONS\SOURCE\LIBRARY\OBJ\DEBUG\MATRIXHELPER.OBJ
C:\USERS\DNGOI\SOURCE\REPOS\DNGOINS\DIRECTX-ESSENTIALS-LIVELESSONS\SOURCE\LIBRARY\OBJ\DEBUG\MESH.OBJ
C:\USERS\DNGOI\SOURCE\REPOS\DNGOINS\DIRECTX-ESSENTIALS-LIVELESSONS\SOURCE\LIBRARY\OBJ\DEBUG\MODEL.OBJ
C:\USERS\DNGOI\SOURCE\REPOS\DNGOINS\DIRECTX-ESSENTIALS-LIVELESSONS\SOURCE\LIBRARY\OBJ\DEBUG\MODELMATERIAL.OBJ
C:\USERS\DNGOI\SOURCE\REPOS\DNGOINS\DIRECTX-ESSENTIALS-LIVELESSONS\SOURCE\LIBRARY\OBJ\DEBUG\MOUSE.OBJ
C:\USERS\DNGOI\SOURCE\REPOS\DNGOINS\DIRECTX-ESSENTIALS-LIVELESSONS\SOURCE\LIBRARY\OBJ\DEBUG\POINTLIGHT.OBJ
C:\USERS\DNGOI\SOURCE\REPOS\DNGOINS\DIRECTX-ESSENTIALS-LIVELESSONS\SOURCE\LIBRARY\OBJ\DEBUG\PROXYMODEL.OBJ
C:\USERS\DNGOI\SOURCE\REPOS\DNGOINS\DIRECTX-ESSENTIALS-LIVELESSONS\SOURCE\LIBRARY\OBJ\DEBUG\RASTERIZERSTATES.OBJ
C:\USERS\DNGOI\SOURCE\REPOS\DNGOINS\DIRECTX-ESSENTIALS-LIVELESSONS\SOURCE\LIBRARY\OBJ\DEBUG\RENDERSTATEHELPER.OBJ
C:\USERS\DNGOI\SOURCE\REPOS\DNGOINS\DIRECTX-ESSENTIALS-LIVELESSONS\SOURCE\LIBRARY\OBJ\DEBUG\RENDERTARGET.OBJ
C:\USERS\DNGOI\SOURCE\REPOS\DNGOINS\DIRECTX-ESSENTIALS-LIVELESSONS\SOURCE\LIBRARY\OBJ\DEBUG\SAMPLERSTATES.OBJ
C:\USERS\DNGOI\SOURCE\REPOS\DNGOINS\DIRECTX-ESSENTIALS-LIVELESSONS\SOURCE\LIBRARY\OBJ\DEBUG\SERVICECONTAINER.OBJ
C:\USERS\DNGOI\SOURCE\REPOS\DNGOINS\DIRECTX-ESSENTIALS-LIVELESSONS\SOURCE\LIBRARY\OBJ\DEBUG\SKYBOX.OBJ
C:\USERS\DNGOI\SOURCE\REPOS\DNGOINS\DIRECTX-ESSENTIALS-LIVELESSONS\SOURCE\LIBRARY\OBJ\DEBUG\SPOTLIGHT.OBJ
C:\USERS\DNGOI\SOURCE\REPOS\DNGOINS\DIRECTX-ESSENTIALS-LIVELESSONS\SOURCE\LIBRARY\OBJ\DEBUG\UTILITY.OBJ
C:\USERS\DNGOI\SOURCE\REPOS\DNGOINS\DIRECTX-ESSENTIALS-LIVELESSONS\SOURCE\LIBRARY\OBJ\DEBUG\VECTORHELPER.OBJ
C:\USERS\DNGOI\SOURCE\REPOS\DNGOINS\DIRECTX-ESSENTIALS-LIVELESSONS\SOURCE\LIBRARY\OBJ\DEBUG\BLENDSTATES.OBJ
C:\USERS\DNGOI\SOURCE\REPOS\DNGOINS\DIRECTX-ESSENTIALS-LIVELESSONS\SOURCE\LIBRARY\OBJ\DEBUG\CAMERA.OBJ
C:\USERS\DNGOI\SOURCE\REPOS\DNGOINS\DIRECTX-ESSENTIALS-LIVELESSONS\SOURCE\LIBRARY\OBJ\DEBUG\COLORHELPER.OBJ
C:\USERS\DNGOI\SOURCE\REPOS\DNGOINS\DIRECTX-ESSENTIALS-LIVELESSONS\SOURCE\LIBRARY\OBJ\DEBUG\DIRECTIONALLIGHT.OBJ
C:\USERS\DNGOI\SOURCE\REPOS\DNGOINS\DIRECTX-ESSENTIALS-LIVELESSONS\SOURCE\LIBRARY\OBJ\DEBUG\DRAWABLEGAMECOMPONENT.OBJ
C:\USERS\DNGOI\SOURCE\REPOS\DNGOINS\DIRECTX-ESSENTIALS-LIVELESSONS\SOURCE\LIBRARY\OBJ\DEBUG\FIRSTPERSONCAMERA.OBJ
C:\USERS\DNGOI\SOURCE\REPOS\DNGOINS\DIRECTX-ESSENTIALS-LIVELESSONS\SOURCE\LIBRARY\OBJ\DEBUG\FPSCOMPONENT.OBJ
C:\USERS\DNGOI\SOURCE\REPOS\DNGOINS\DIRECTX-ESSENTIALS-LIVELESSONS\SOURCE\LIBRARY\OBJ\DEBUG\GAME.OBJ
C:\USERS\DNGOI\SOURCE\REPOS\DNGOINS\DIRECTX-ESSENTIALS-LIVELESSONS\SOURCE\LIBRARY\OBJ\DEBUG\GAMECLOCK.OBJ
C:\USERS\DNGOI\SOURCE\REPOS\DNGOINS\DIRECTX-ESSENTIALS-LIVELESSONS\SOURCE\LIBRARY\OBJ\DEBUG\GAMECOMPONENT.OBJ
C:\USERS\DNGOI\SOURCE\REPOS\DNGOINS\DIRECTX-ESSENTIALS-LIVELESSONS\SOURCE\LIBRARY\OBJ\DEBUG\GAMEEXCEPTION.OBJ
^C:\USERS\DNGOI\SOURCE\REPOS\DNGOINS\DIRECTX-ESSENTIALS-LIVELESSONS\SOURCE\LIBRARY\BLENDSTATES.CPP
C:\USERS\DNGOI\SOURCE\REPOS\DNGOINS\DIRECTX-ESSENTIALS-LIVELESSONS\SOURCE\LIBRARY\OBJ\DEBUG\LIBRARY.PDB
^C:\USERS\DNGOI\SOURCE\REPOS\DNGOINS\DIRECTX-ESSENTIALS-LIVELESSONS\SOURCE\LIBRARY\CAMERA.CPP
C:\USERS\DNGOI\SOURCE\REPOS\DNGOINS\DIRECTX-ESSENTIALS-LIVELESSONS\SOURCE\LIBRARY\OBJ\DEBUG\LIBRARY.PDB
^C:\USERS\DNGOI\SOURCE\REPOS\DNGOINS\DIRECTX-ESSENTIALS-LIVELESSONS\SOURCE\LIBRARY\COLORHELPER.CPP
C:\USERS\DNGOI\SOURCE\REPOS\DNGOINS\DIRECTX-ESSENTIALS-LIVELESSONS\SOURCE\LIBRARY\OBJ\DEBUG\LIBRARY.PDB
^C:\USERS\DNGOI\SOURCE\REPOS\DNGOINS\DIRECTX-ESSENTIALS-LIVELESSONS\SOURCE\LIBRARY\DIRECTIONALLIGHT.CPP
C:\USERS\DNGOI\SOURCE\REPOS\DNGOINS\DIRECTX-ESSENTIALS-LIVELESSONS\SOURCE\LIBRARY\OBJ\DEBUG\LIBRARY.PDB
^C:\USERS\DNGOI\SOURCE\REPOS\DNGOINS\DIRECTX-ESSENTIALS-LIVELESSONS\SOURCE\LIBRARY\DRAWABLEGAMECOMPONENT.CPP
C:\USERS\DNGOI\SOURCE\REPOS\DNGOINS\DIRECTX-ESSENTIALS-LIVELESSONS\SOURCE\LIBRARY\OBJ\DEBUG\LIBRARY.PDB
^C:\USERS\DNGOI\SOURCE\REPOS\DNGOINS\DIRECTX-ESSENTIALS-LIVELESSONS\SOURCE\LIBRARY\FIRSTPERSONCAMERA.CPP
C:\USERS\DNGOI\SOURCE\REPOS\DNGOINS\DIRECTX-ESSENTIALS-LIVELESSONS\SOURCE\LIBRARY\OBJ\DEBUG\LIBRARY.PDB
^C:\USERS\DNGOI\SOURCE\REPOS\DNGOINS\DIRECTX-ESSENTIALS-LIVELESSONS\SOURCE\LIBRARY\FPSCOMPONENT.CPP
C:\USERS\DNGOI\SOURCE\REPOS\DNGOINS\DIRECTX-ESSENTIALS-LIVELESSONS\SOURCE\LIBRARY\OBJ\DEBUG\LIBRARY.PDB
^C:\USERS\DNGOI\SOURCE\REPOS\DNGOINS\DIRECTX-ESSENTIALS-LIVELESSONS\SOURCE\LIBRARY\GAME.CPP
C:\USERS\DNGOI\SOURCE\REPOS\DNGOINS\DIRECTX-ESSENTIALS-LIVELESSONS\SOURCE\LIBRARY\OBJ\DEBUG\LIBRARY.PDB
^C:\USERS\DNGOI\SOURCE\REPOS\DNGOINS\DIRECTX-ESSENTIALS-LIVELESSONS\SOURCE\LIBRARY\GAMECLOCK.CPP
C:\USERS\DNGOI\SOURCE\REPOS\DNGOINS\DIRECTX-ESSENTIALS-LIVELESSONS\SOURCE\LIBRARY\OBJ\DEBUG\LIBRARY.PDB
^C:\USERS\DNGOI\SOURCE\REPOS\DNGOINS\DIRECTX-ESSENTIALS-LIVELESSONS\SOURCE\LIBRARY\GAMECOMPONENT.CPP
C:\USERS\DNGOI\SOURCE\REPOS\DNGOINS\DIRECTX-ESSENTIALS-LIVELESSONS\SOURCE\LIBRARY\OBJ\DEBUG\LIBRARY.PDB
^C:\USERS\DNGOI\SOURCE\REPOS\DNGOINS\DIRECTX-ESSENTIALS-LIVELESSONS\SOURCE\LIBRARY\GAMEEXCEPTION.CPP
C:\USERS\DNGOI\SOURCE\REPOS\DNGOINS\DIRECTX-ESSENTIALS-LIVELESSONS\SOURCE\LIBRARY\OBJ\DEBUG\LIBRARY.PDB
^C:\USERS\DNGOI\SOURCE\REPOS\DNGOINS\DIRECTX-ESSENTIALS-LIVELESSONS\SOURCE\LIBRARY\GAMETIME.CPP
C:\USERS\DNGOI\SOURCE\REPOS\DNGOINS\DIRECTX-ESSENTIALS-LIVELESSONS\SOURCE\LIBRARY\OBJ\DEBUG\LIBRARY.PDB
^C:\USERS\DNGOI\SOURCE\REPOS\DNGOINS\DIRECTX-ESSENTIALS-LIVELESSONS\SOURCE\LIBRARY\GRID.CPP
C:\USERS\DNGOI\SOURCE\REPOS\DNGOINS\DIRECTX-ESSENTIALS-LIVELESSONS\SOURCE\LIBRARY\OBJ\DEBUG\LIBRARY.PDB
^C:\USERS\DNGOI\SOURCE\REPOS\DNGOINS\DIRECTX-ESSENTIALS-LIVELESSONS\SOURCE\LIBRARY\KEYBOARD.CPP
C:\USERS\DNGOI\SOURCE\REPOS\DNGOINS\DIRECTX-ESSENTIALS-LIVELESSONS\SOURCE\LIBRARY\OBJ\DEBUG\LIBRARY.PDB
^C:\USERS\DNGOI\SOURCE\REPOS\DNGOINS\DIRECTX-ESSENTIALS-LIVELESSONS\SOURCE\LIBRARY\LIGHT.CPP
C:\USERS\DNGOI\SOURCE\REPOS\DNGOINS\DIRECTX-ESSENTIALS-LIVELESSONS\SOURCE\LIBRARY\OBJ\DEBUG\LIBRARY.PDB
^C:\USERS\DNGOI\SOURCE\REPOS\DNGOINS\DIRECTX-ESSENTIALS-LIVELESSONS\SOURCE\LIBRARY\MATRIXHELPER.CPP
C:\USERS\DNGOI\SOURCE\REPOS\DNGOINS\DIRECTX-ESSENTIALS-LIVELESSONS\SOURCE\LIBRARY\OBJ\DEBUG\LIBRARY.PDB
^C:\USERS\DNGOI\SOURCE\REPOS\DNGOINS\DIRECTX-ESSENTIALS-LIVELESSONS\SOURCE\LIBRARY\MESH.CPP
C:\USERS\DNGOI\SOURCE\REPOS\DNGOINS\DIRECTX-ESSENTIALS-LIVELESSONS\SOURCE\LIBRARY\OBJ\DEBUG\LIBRARY.PDB
^C:\USERS\DNGOI\SOURCE\REPOS\DNGOINS\DIRECTX-ESSENTIALS-LIVELESSONS\SOURCE\LIBRARY\MODEL.CPP
C:\USERS\DNGOI\SOURCE\REPOS\DNGOINS\DIRECTX-ESSENTIALS-LIVELESSONS\SOURCE\LIBRARY\OBJ\DEBUG\LIBRARY.PDB
^C:\USERS\DNGOI\SOURCE\REPOS\DNGOINS\DIRECTX-ESSENTIALS-LIVELESSONS\SOURCE\LIBRARY\MODELMATERIAL.CPP
C:\USERS\DNGOI\SOURCE\REPOS\DNGOINS\DIRECTX-ESSENTIALS-LIVELESSONS\SOURCE\LIBRARY\OBJ\DEBUG\LIBRARY.PDB
^C:\USERS\DNGOI\SOURCE\REPOS\DNGOINS\DIRECTX-ESSENTIALS-LIVELESSONS\SOURCE\LIBRARY\MOUSE.CPP
C:\USERS\DNGOI\SOURCE\REPOS\DNGOINS\DIRECTX-ESSENTIALS-LIVELESSONS\SOURCE\LIBRARY\OBJ\DEBUG\LIBRARY.PDB
^C:\USERS\DNGOI\SOURCE\REPOS\DNGOINS\DIRECTX-ESSENTIALS-LIVELESSONS\SOURCE\LIBRARY\POINTLIGHT.CPP
C:\USERS\DNGOI\SOURCE\REPOS\DNGOINS\DIRECTX-ESSENTIALS-LIVELESSONS\SOURCE\LIBRARY\OBJ\DEBUG\LIBRARY.PDB
^C:\USERS\DNGOI\SOURCE\REPOS\DNGOINS\DIRECTX-ESSENTIALS-LIVELESSONS\SOURCE\LIBRARY\PROXYMODEL.CPP
C:\USERS\DNGOI\SOURCE\REPOS\DNGOINS\DIRECTX-ESSENTIALS-LIVELESSONS\SOURCE\LIBRARY\OBJ\DEBUG\LIBRARY.PDB
^C:\USERS\DNGOI\SOURCE\REPOS\DNGOINS\DIRECTX-ESSENTIALS-LIVELESSONS\SOURCE\LIBRARY\RASTERIZERSTATES.CPP
C:\USERS\DNGOI\SOURCE\REPOS\DNGOINS\DIRECTX-ESSENTIALS-LIVELESSONS\SOURCE\LIBRARY\OBJ\DEBUG\LIBRARY.PDB
^C:\USERS\DNGOI\SOURCE\REPOS\DNGOINS\DIRECTX-ESSENTIALS-LIVELESSONS\SOURCE\LIBRARY\RENDERSTATEHELPER.CPP
C:\USERS\DNGOI\SOURCE\REPOS\DNGOINS\DIRECTX-ESSENTIALS-LIVELESSONS\SOURCE\LIBRARY\OBJ\DEBUG\LIBRARY.PDB
^C:\USERS\DNGOI\SOURCE\REPOS\DNGOINS\DIRECTX-ESSENTIALS-LIVELESSONS\SOURCE\LIBRARY\RENDERTARGET.CPP
C:\USERS\DNGOI\SOURCE\REPOS\DNGOINS\DIRECTX-ESSENTIALS-LIVELESSONS\SOURCE\LIBRARY\OBJ\DEBUG\LIBRARY.PDB
^C:\USERS\DNGOI\SOURCE\REPOS\DNGOINS\DIRECTX-ESSENTIALS-LIVELESSONS\SOURCE\LIBRARY\SAMPLERSTATES.CPP
C:\USERS\DNGOI\SOURCE\REPOS\DNGOINS\DIRECTX-ESSENTIALS-LIVELESSONS\SOURCE\LIBRARY\OBJ\DEBUG\LIBRARY.PDB
^C:\USERS\DNGOI\SOURCE\REPOS\DNGOINS\DIRECTX-ESSENTIALS-LIVELESSONS\SOURCE\LIBRARY\SERVICECONTAINER.CPP
C:\USERS\DNGOI\SOURCE\REPOS\DNGOINS\DIRECTX-ESSENTIALS-LIVELESSONS\SOURCE\LIBRARY\OBJ\DEBUG\LIBRARY.PDB
^C:\USERS\DNGOI\SOURCE\REPOS\DNGOINS\DIRECTX-ESSENTIALS-LIVELESSONS\SOURCE\LIBRARY\SKYBOX.CPP
C:\USERS\DNGOI\SOURCE\REPOS\DNGOINS\DIRECTX-ESSENTIALS-LIVELESSONS\SOURCE\LIBRARY\OBJ\DEBUG\LIBRARY.PDB
^C:\USERS\DNGOI\SOURCE\REPOS\DNGOINS\DIRECTX-ESSENTIALS-LIVELESSONS\SOURCE\LIBRARY\SPOTLIGHT.CPP
C:\USERS\DNGOI\SOURCE\REPOS\DNGOINS\DIRECTX-ESSENTIALS-LIVELESSONS\SOURCE\LIBRARY\OBJ\DEBUG\LIBRARY.PDB
^C:\USERS\DNGOI\SOURCE\REPOS\DNGOINS\DIRECTX-ESSENTIALS-LIVELESSONS\SOURCE\LIBRARY\UTILITY.CPP
C:\USERS\DNGOI\SOURCE\REPOS\DNGOINS\DIRECTX-ESSENTIALS-LIVELESSONS\SOURCE\LIBRARY\OBJ\DEBUG\LIBRARY.PDB
^C:\USERS\DNGOI\SOURCE\REPOS\DNGOINS\DIRECTX-ESSENTIALS-LIVELESSONS\SOURCE\LIBRARY\VECTORHELPER.CPP
C:\USERS\DNGOI\SOURCE\REPOS\DNGOINS\DIRECTX-ESSENTIALS-LIVELESSONS\SOURCE\LIBRARY\OBJ\DEBUG\LIBRARY.PDB
^C:\USERS\DNGOI\SOURCE\REPOS\DNGOINS\HOLOLENSCOMPANIONKIT\REMOTINGHOSTSAMPLE\LIBRARY\BLENDSTATES.CPP|C:\USERS\DNGOI\SOURCE\REPOS\DNGOINS\HOLOLENSCOMPANIONKIT\REMOTINGHOSTSAMPLE\LIBRARY\CAMERA.CPP|C:\USERS\DNGOI\SOURCE\REPOS\DNGOINS\HOLOLENSCOMPANIONKIT\REMOTINGHOSTSAMPLE\LIBRARY\COLORHELPER.CPP|C:\USERS\DNGOI\SOURCE\REPOS\DNGOINS\HOLOLENSCOMPANIONKIT\REMOTINGHOSTSAMPLE\LIBRARY\DIRECTIONALLIGHT.CPP|C:\USERS\DNGOI\SOURCE\REPOS\DNGOINS\HOLOLENSCOMPANIONKIT\REMOTINGHOSTSAMPLE\LIBRARY\DRAWABLEGAMECOMPONENT.CPP|C:\USERS\DNGOI\SOURCE\REPOS\DNGOINS\HOLOLENSCOMPANIONKIT\REMOTINGHOSTSAMPLE\LIBRARY\FIRSTPERSONCAMERA.CPP|C:\USERS\DNGOI\SOURCE\REPOS\DNGOINS\HOLOLENSCOMPANIONKIT\REMOTINGHOSTSAMPLE\LIBRARY\FPSCOMPONENT.CPP|C:\USERS\DNGOI\SOURCE\REPOS\DNGOINS\HOLOLENSCOMPANIONKIT\REMOTINGHOSTSAMPLE\LIBRARY\GAME.CPP|C:\USERS\DNGOI\SOURCE\REPOS\DNGOINS\HOLOLENSCOMPANIONKIT\REMOTINGHOSTSAMPLE\LIBRARY\GAMECLOCK.CPP|C:\USERS\DNGOI\SOURCE\REPOS\DNGOINS\HOLOLENSCOMPANIONKIT\REMOTINGHOSTSAMPLE\LIBRARY\GAMECOMPONENT.CPP|C:\USERS\DNGOI\SOURCE\REPOS\DNGOINS\HOLOLENSCOMPANIONKIT\REMOTINGHOSTSAMPLE\LIBRARY\GAMEEXCEPTION.CPP|C:\USERS\DNGOI\SOURCE\REPOS\DNGOINS\HOLOLENSCOMPANIONKIT\REMOTINGHOSTSAMPLE\LIBRARY\GAMETIME.CPP|C:\USERS\DNGOI\SOURCE\REPOS\DNGOINS\HOLOLENSCOMPANIONKIT\REMOTINGHOSTSAMPLE\LIBRARY\GRID.CPP|C:\USERS\DNGOI\SOURCE\REPOS\DNGOINS\HOLOLENSCOMPANIONKIT\REMOTINGHOSTSAMPLE\LIBRARY\KEYBOARD.CPP|C:\USERS\DNGOI\SOURCE\REPOS\DNGOINS\HOLOLENSCOMPANIONKIT\REMOTINGHOSTSAMPLE\LIBRARY\LIGHT.CPP|C:\USERS\DNGOI\SOURCE\REPOS\DNGOINS\HOLOLENSCOMPANIONKIT\REMOTINGHOSTSAMPLE\LIBRARY\MATRIXHELPER.CPP|C:\USERS\DNGOI\SOURCE\REPOS\DNGOINS\HOLOLENSCOMPANIONKIT\REMOTINGHOSTSAMPLE\LIBRARY\MESH.CPP|C:\USERS\DNGOI\SOURCE\REPOS\DNGOINS\HOLOLENSCOMPANIONKIT\REMOTINGHOSTSAMPLE\LIBRARY\MODEL.CPP|C:\USERS\DNGOI\SOURCE\REPOS\DNGOINS\HOLOLENSCOMPANIONKIT\REMOTINGHOSTSAMPLE\LIBRARY\MODELMATERIAL.CPP|C:\USERS\DNGOI\SOURCE\REPOS\DNGOINS\HOLOLENSCOMPANIONKIT\REMOTINGHOSTSAMPLE\LIBRARY\MOUSE.CPP|C:\USERS\DNGOI\SOURCE\REPOS\DNGOINS\HOLOLENSCOMPANIONKIT\REMOTINGHOSTSAMPLE\LIBRARY\POINTLIGHT.CPP|C:\USERS\DNGOI\SOURCE\REPOS\DNGOINS\HOLOLENSCOMPANIONKIT\REMOTINGHOSTSAMPLE\LIBRARY\PROXYMODEL.CPP|C:\USERS\DNGOI\SOURCE\REPOS\DNGOINS\HOLOLENSCOMPANIONKIT\REMOTINGHOSTSAMPLE\LIBRARY\RASTERIZERSTATES.CPP|C:\USERS\DNGOI\SOURCE\REPOS\DNGOINS\HOLOLENSCOMPANIONKIT\REMOTINGHOSTSAMPLE\LIBRARY\RENDERSTATEHELPER.CPP|C:\USERS\DNGOI\SOURCE\REPOS\DNGOINS\HOLOLENSCOMPANIONKIT\REMOTINGHOSTSAMPLE\LIBRARY\RENDERTARGET.CPP|C:\USERS\DNGOI\SOURCE\REPOS\DNGOINS\HOLOLENSCOMPANIONKIT\REMOTINGHOSTSAMPLE\LIBRARY\SAMPLERSTATES.CPP|C:\USERS\DNGOI\SOURCE\REPOS\DNGOINS\HOLOLENSCOMPANIONKIT\REMOTINGHOSTSAMPLE\LIBRARY\SERVICECONTAINER.CPP|C:\USERS\DNGOI\SOURCE\REPOS\DNGOINS\HOLOLENSCOMPANIONKIT\REMOTINGHOSTSAMPLE\LIBRARY\SKYBOX.CPP|C:\USERS\DNGOI\SOURCE\REPOS\DNGOINS\HOLOLENSCOMPANIONKIT\REMOTINGHOSTSAMPLE\LIBRARY\SPOTLIGHT.CPP|C:\USERS\DNGOI\SOURCE\REPOS\DNGOINS\HOLOLENSCOMPANIONKIT\REMOTINGHOSTSAMPLE\LIBRARY\UTILITY.CPP|C:\USERS\DNGOI\SOURCE\REPOS\DNGOINS\HOLOLENSCOMPANIONKIT\REMOTINGHOSTSAMPLE\LIBRARY\VECTORHELPER.CPP
C:\USERS\DNGOI\SOURCE\REPOS\DNGOINS\HOLOLENSCOMPANIONKIT\REMOTINGHOSTSAMPLE\LIBRARY\OBJ\DEBUG\LIBRARY.PDB
C:\USERS\DNGOI\SOURCE\REPOS\DNGOINS\HOLOLENSCOMPANIONKIT\REMOTINGHOSTSAMPLE\LIBRARY\OBJ\DEBUG\LIBRARY.IDB
C:\USERS\DNGOI\SOURCE\REPOS\DNGOINS\HOLOLENSCOMPANIONKIT\REMOTINGHOSTSAMPLE\LIBRARY\OBJ\DEBUG\GAMETIME.OBJ
C:\USERS\DNGOI\SOURCE\REPOS\DNGOINS\HOLOLENSCOMPANIONKIT\REMOTINGHOSTSAMPLE\LIBRARY\OBJ\DEBUG\GRID.OBJ
C:\USERS\DNGOI\SOURCE\REPOS\DNGOINS\HOLOLENSCOMPANIONKIT\REMOTINGHOSTSAMPLE\LIBRARY\OBJ\DEBUG\KEYBOARD.OBJ
C:\USERS\DNGOI\SOURCE\REPOS\DNGOINS\HOLOLENSCOMPANIONKIT\REMOTINGHOSTSAMPLE\LIBRARY\OBJ\DEBUG\LIGHT.OBJ
C:\USERS\DNGOI\SOURCE\REPOS\DNGOINS\HOLOLENSCOMPANIONKIT\REMOTINGHOSTSAMPLE\LIBRARY\OBJ\DEBUG\MATRIXHELPER.OBJ
C:\USERS\DNGOI\SOURCE\REPOS\DNGOINS\HOLOLENSCOMPANIONKIT\REMOTINGHOSTSAMPLE\LIBRARY\OBJ\DEBUG\MOUSE.OBJ
C:\USERS\DNGOI\SOURCE\REPOS\DNGOINS\HOLOLENSCOMPANIONKIT\REMOTINGHOSTSAMPLE\LIBRARY\OBJ\DEBUG\POINTLIGHT.OBJ
C:\USERS\DNGOI\SOURCE\REPOS\DNGOINS\HOLOLENSCOMPANIONKIT\REMOTINGHOSTSAMPLE\LIBRARY\OBJ\DEBUG\PROXYMODEL.OBJ
C:\USERS\DNGOI\SOURCE\REPOS\DNGOINS\HOLOLENSCOMPANIONKIT\REMOTINGHOSTSAMPLE\LIBRARY\OBJ\DEBUG\RASTERIZERSTATES.OBJ
C:\USERS\DNGOI\SOURCE\REPOS\DNGOINS\HOLOLENSCOMPANIONKIT\REMOTINGHOSTSAMPLE\LIBRARY\OBJ\DEBUG\RENDERSTATEHELPER.OBJ
C:\USERS\DNGOI\SOURCE\REPOS\DNGOINS\HOLOLENSCOMPANIONKIT\REMOTINGHOSTSAMPLE\LIBRARY\OBJ\DEBUG\RENDERTARGET.OBJ
C:\USERS\DNGOI\SOURCE\REPOS\DNGOINS\HOLOLENSCOMPANIONKIT\REMOTINGHOSTSAMPLE\LIBRARY\OBJ\DEBUG\SAMPLERSTATES.OBJ
C:\USERS\DNGOI\SOURCE\REPOS\DNGOINS\HOLOLENSCOMPANIONKIT\REMOTINGHOSTSAMPLE\LIBRARY\OBJ\DEBUG\SERVICECONTAINER.OBJ
C:\USERS\DNGOI\SOURCE\REPOS\DNGOINS\HOLOLENSCOMPANIONKIT\REMOTINGHOSTSAMPLE\LIBRARY\OBJ\DEBUG\SPOTLIGHT.OBJ
C:\USERS\DNGOI\SOURCE\REPOS\DNGOINS\HOLOLENSCOMPANIONKIT\REMOTINGHOSTSAMPLE\LIBRARY\OBJ\DEBUG\UTILITY.OBJ
C:\USERS\DNGOI\SOURCE\REPOS\DNGOINS\HOLOLENSCOMPANIONKIT\REMOTINGHOSTSAMPLE\LIBRARY\OBJ\DEBUG\VECTORHELPER.OBJ
C:\USERS\DNGOI\SOURCE\REPOS\DNGOINS\HOLOLENSCOMPANIONKIT\REMOTINGHOSTSAMPLE\LIBRARY\OBJ\DEBUG\BLENDSTATES.OBJ
C:\USERS\DNGOI\SOURCE\REPOS\DNGOINS\HOLOLENSCOMPANIONKIT\REMOTINGHOSTSAMPLE\LIBRARY\OBJ\DEBUG\CAMERA.OBJ
C:\USERS\DNGOI\SOURCE\REPOS\DNGOINS\HOLOLENSCOMPANIONKIT\REMOTINGHOSTSAMPLE\LIBRARY\OBJ\DEBUG\COLORHELPER.OBJ
C:\USERS\DNGOI\SOURCE\REPOS\DNGOINS\HOLOLENSCOMPANIONKIT\REMOTINGHOSTSAMPLE\LIBRARY\OBJ\DEBUG\DIRECTIONALLIGHT.OBJ
C:\USERS\DNGOI\SOURCE\REPOS\DNGOINS\HOLOLENSCOMPANIONKIT\REMOTINGHOSTSAMPLE\LIBRARY\OBJ\DEBUG\DRAWABLEGAMECOMPONENT.OBJ
C:\USERS\DNGOI\SOURCE\REPOS\DNGOINS\HOLOLENSCOMPANIONKIT\REMOTINGHOSTSAMPLE\LIBRARY\OBJ\DEBUG\FIRSTPERSONCAMERA.OBJ
C:\USERS\DNGOI\SOURCE\REPOS\DNGOINS\HOLOLENSCOMPANIONKIT\REMOTINGHOSTSAMPLE\LIBRARY\OBJ\DEBUG\GAME.OBJ
C:\USERS\DNGOI\SOURCE\REPOS\DNGOINS\HOLOLENSCOMPANIONKIT\REMOTINGHOSTSAMPLE\LIBRARY\OBJ\DEBUG\GAMECLOCK.OBJ
C:\USERS\DNGOI\SOURCE\REPOS\DNGOINS\HOLOLENSCOMPANIONKIT\REMOTINGHOSTSAMPLE\LIBRARY\OBJ\DEBUG\GAMECOMPONENT.OBJ
C:\USERS\DNGOI\SOURCE\REPOS\DNGOINS\HOLOLENSCOMPANIONKIT\REMOTINGHOSTSAMPLE\LIBRARY\OBJ\DEBUG\GAMEEXCEPTION.OBJ
C:\USERS\DNGOI\SOURCE\REPOS\DNGOINS\HOLOLENSCOMPANIONKIT\REMOTINGHOSTSAMPLE\LIBRARY\OBJ\DEBUG\MESH.OBJ
C:\USERS\DNGOI\SOURCE\REPOS\DNGOINS\HOLOLENSCOMPANIONKIT\REMOTINGHOSTSAMPLE\LIBRARY\OBJ\DEBUG\MODEL.OBJ
C:\USERS\DNGOI\SOURCE\REPOS\DNGOINS\HOLOLENSCOMPANIONKIT\REMOTINGHOSTSAMPLE\LIBRARY\OBJ\DEBUG\MODELMATERIAL.OBJ
C:\USERS\DNGOI\SOURCE\REPOS\DNGOINS\HOLOLENSCOMPANIONKIT\REMOTINGHOSTSAMPLE\LIBRARY\OBJ\DEBUG\SKYBOX.OBJ
C:\USERS\DNGOI\SOURCE\REPOS\DNGOINS\HOLOLENSCOMPANIONKIT\REMOTINGHOSTSAMPLE\LIBRARY\OBJ\DEBUG\FPSCOMPONENT.OBJ
^C:\USERS\DNGOI\SOURCE\REPOS\DNGOINS\HOLOLENSCOMPANIONKIT\REMOTINGHOSTSAMPLE\LIBRARY\BLENDSTATES.CPP
C:\USERS\DNGOI\SOURCE\REPOS\DNGOINS\HOLOLENSCOMPANIONKIT\REMOTINGHOSTSAMPLE\LIBRARY\OBJ\DEBUG\LIBRARY.PDB
^C:\USERS\DNGOI\SOURCE\REPOS\DNGOINS\HOLOLENSCOMPANIONKIT\REMOTINGHOSTSAMPLE\LIBRARY\CAMERA.CPP
C:\USERS\DNGOI\SOURCE\REPOS\DNGOINS\HOLOLENSCOMPANIONKIT\REMOTINGHOSTSAMPLE\LIBRARY\OBJ\DEBUG\LIBRARY.PDB
^C:\USERS\DNGOI\SOURCE\REPOS\DNGOINS\HOLOLENSCOMPANIONKIT\REMOTINGHOSTSAMPLE\LIBRARY\COLORHELPER.CPP
C:\USERS\DNGOI\SOURCE\REPOS\DNGOINS\HOLOLENSCOMPANIONKIT\REMOTINGHOSTSAMPLE\LIBRARY\OBJ\DEBUG\LIBRARY.PDB
^C:\USERS\DNGOI\SOURCE\REPOS\DNGOINS\HOLOLENSCOMPANIONKIT\REMOTINGHOSTSAMPLE\LIBRARY\DIRECTIONALLIGHT.CPP
C:\USERS\DNGOI\SOURCE\REPOS\DNGOINS\HOLOLENSCOMPANIONKIT\REMOTINGHOSTSAMPLE\LIBRARY\OBJ\DEBUG\LIBRARY.PDB
^C:\USERS\DNGOI\SOURCE\REPOS\DNGOINS\HOLOLENSCOMPANIONKIT\REMOTINGHOSTSAMPLE\LIBRARY\DRAWABLEGAMECOMPONENT.CPP
C:\USERS\DNGOI\SOURCE\REPOS\DNGOINS\HOLOLENSCOMPANIONKIT\REMOTINGHOSTSAMPLE\LIBRARY\OBJ\DEBUG\LIBRARY.PDB
^C:\USERS\DNGOI\SOURCE\REPOS\DNGOINS\HOLOLENSCOMPANIONKIT\REMOTINGHOSTSAMPLE\LIBRARY\FIRSTPERSONCAMERA.CPP
C:\USERS\DNGOI\SOURCE\REPOS\DNGOINS\HOLOLENSCOMPANIONKIT\REMOTINGHOSTSAMPLE\LIBRARY\OBJ\DEBUG\LIBRARY.PDB
^C:\USERS\DNGOI\SOURCE\REPOS\DNGOINS\HOLOLENSCOMPANIONKIT\REMOTINGHOSTSAMPLE\LIBRARY\FPSCOMPONENT.CPP
C:\USERS\DNGOI\SOURCE\REPOS\DNGOINS\HOLOLENSCOMPANIONKIT\REMOTINGHOSTSAMPLE\LIBRARY\OBJ\DEBUG\LIBRARY.PDB
^C:\USERS\DNGOI\SOURCE\REPOS\DNGOINS\HOLOLENSCOMPANIONKIT\REMOTINGHOSTSAMPLE\LIBRARY\GAME.CPP
C:\USERS\DNGOI\SOURCE\REPOS\DNGOINS\HOLOLENSCOMPANIONKIT\REMOTINGHOSTSAMPLE\LIBRARY\OBJ\DEBUG\LIBRARY.PDB
^C:\USERS\DNGOI\SOURCE\REPOS\DNGOINS\HOLOLENSCOMPANIONKIT\REMOTINGHOSTSAMPLE\LIBRARY\GAMECLOCK.CPP
C:\USERS\DNGOI\SOURCE\REPOS\DNGOINS\HOLOLENSCOMPANIONKIT\REMOTINGHOSTSAMPLE\LIBRARY\OBJ\DEBUG\LIBRARY.PDB
^C:\USERS\DNGOI\SOURCE\REPOS\DNGOINS\HOLOLENSCOMPANIONKIT\REMOTINGHOSTSAMPLE\LIBRARY\GAMECOMPONENT.CPP
C:\USERS\DNGOI\SOURCE\REPOS\DNGOINS\HOLOLENSCOMPANIONKIT\REMOTINGHOSTSAMPLE\LIBRARY\OBJ\DEBUG\LIBRARY.PDB
^C:\USERS\DNGOI\SOURCE\REPOS\DNGOINS\HOLOLENSCOMPANIONKIT\REMOTINGHOSTSAMPLE\LIBRARY\GAMEEXCEPTION.CPP
C:\USERS\DNGOI\SOURCE\REPOS\DNGOINS\HOLOLENSCOMPANIONKIT\REMOTINGHOSTSAMPLE\LIBRARY\OBJ\DEBUG\LIBRARY.PDB
^C:\USERS\DNGOI\SOURCE\REPOS\DNGOINS\HOLOLENSCOMPANIONKIT\REMOTINGHOSTSAMPLE\LIBRARY\GAMETIME.CPP
C:\USERS\DNGOI\SOURCE\REPOS\DNGOINS\HOLOLENSCOMPANIONKIT\REMOTINGHOSTSAMPLE\LIBRARY\OBJ\DEBUG\LIBRARY.PDB
^C:\USERS\DNGOI\SOURCE\REPOS\DNGOINS\HOLOLENSCOMPANIONKIT\REMOTINGHOSTSAMPLE\LIBRARY\GRID.CPP
C:\USERS\DNGOI\SOURCE\REPOS\DNGOINS\HOLOLENSCOMPANIONKIT\REMOTINGHOSTSAMPLE\LIBRARY\OBJ\DEBUG\LIBRARY.PDB
^C:\USERS\DNGOI\SOURCE\REPOS\DNGOINS\HOLOLENSCOMPANIONKIT\REMOTINGHOSTSAMPLE\LIBRARY\KEYBOARD.CPP
C:\USERS\DNGOI\SOURCE\REPOS\DNGOINS\HOLOLENSCOMPANIONKIT\REMOTINGHOSTSAMPLE\LIBRARY\OBJ\DEBUG\LIBRARY.PDB
^C:\USERS\DNGOI\SOURCE\REPOS\DNGOINS\HOLOLENSCOMPANIONKIT\REMOTINGHOSTSAMPLE\LIBRARY\LIGHT.CPP
C:\USERS\DNGOI\SOURCE\REPOS\DNGOINS\HOLOLENSCOMPANIONKIT\REMOTINGHOSTSAMPLE\LIBRARY\OBJ\DEBUG\LIBRARY.PDB
^C:\USERS\DNGOI\SOURCE\REPOS\DNGOINS\HOLOLENSCOMPANIONKIT\REMOTINGHOSTSAMPLE\LIBRARY\MATRIXHELPER.CPP
C:\USERS\DNGOI\SOURCE\REPOS\DNGOINS\HOLOLENSCOMPANIONKIT\REMOTINGHOSTSAMPLE\LIBRARY\OBJ\DEBUG\LIBRARY.PDB
^C:\USERS\DNGOI\SOURCE\REPOS\DNGOINS\HOLOLENSCOMPANIONKIT\REMOTINGHOSTSAMPLE\LIBRARY\MESH.CPP
C:\USERS\DNGOI\SOURCE\REPOS\DNGOINS\HOLOLENSCOMPANIONKIT\REMOTINGHOSTSAMPLE\LIBRARY\OBJ\DEBUG\LIBRARY.PDB
^C:\USERS\DNGOI\SOURCE\REPOS\DNGOINS\HOLOLENSCOMPANIONKIT\REMOTINGHOSTSAMPLE\LIBRARY\MODEL.CPP
C:\USERS\DNGOI\SOURCE\REPOS\DNGOINS\HOLOLENSCOMPANIONKIT\REMOTINGHOSTSAMPLE\LIBRARY\OBJ\DEBUG\LIBRARY.PDB
^C:\USERS\DNGOI\SOURCE\REPOS\DNGOINS\HOLOLENSCOMPANIONKIT\REMOTINGHOSTSAMPLE\LIBRARY\MODELMATERIAL.CPP
C:\USERS\DNGOI\SOURCE\REPOS\DNGOINS\HOLOLENSCOMPANIONKIT\REMOTINGHOSTSAMPLE\LIBRARY\OBJ\DEBUG\LIBRARY.PDB
^C:\USERS\DNGOI\SOURCE\REPOS\DNGOINS\HOLOLENSCOMPANIONKIT\REMOTINGHOSTSAMPLE\LIBRARY\MOUSE.CPP
C:\USERS\DNGOI\SOURCE\REPOS\DNGOINS\HOLOLENSCOMPANIONKIT\REMOTINGHOSTSAMPLE\LIBRARY\OBJ\DEBUG\LIBRARY.PDB
^C:\USERS\DNGOI\SOURCE\REPOS\DNGOINS\HOLOLENSCOMPANIONKIT\REMOTINGHOSTSAMPLE\LIBRARY\POINTLIGHT.CPP
C:\USERS\DNGOI\SOURCE\REPOS\DNGOINS\HOLOLENSCOMPANIONKIT\REMOTINGHOSTSAMPLE\LIBRARY\OBJ\DEBUG\LIBRARY.PDB
^C:\USERS\DNGOI\SOURCE\REPOS\DNGOINS\HOLOLENSCOMPANIONKIT\REMOTINGHOSTSAMPLE\LIBRARY\PROXYMODEL.CPP
C:\USERS\DNGOI\SOURCE\REPOS\DNGOINS\HOLOLENSCOMPANIONKIT\REMOTINGHOSTSAMPLE\LIBRARY\OBJ\DEBUG\LIBRARY.PDB
^C:\USERS\DNGOI\SOURCE\REPOS\DNGOINS\HOLOLENSCOMPANIONKIT\REMOTINGHOSTSAMPLE\LIBRARY\RASTERIZERSTATES.CPP
C:\USERS\DNGOI\SOURCE\REPOS\DNGOINS\HOLOLENSCOMPANIONKIT\REMOTINGHOSTSAMPLE\LIBRARY\OBJ\DEBUG\LIBRARY.PDB
^C:\USERS\DNGOI\SOURCE\REPOS\DNGOINS\HOLOLENSCOMPANIONKIT\REMOTINGHOSTSAMPLE\LIBRARY\RENDERSTATEHELPER.CPP
C:\USERS\DNGOI\SOURCE\REPOS\DNGOINS\HOLOLENSCOMPANIONKIT\REMOTINGHOSTSAMPLE\LIBRARY\OBJ\DEBUG\LIBRARY.PDB
^C:\USERS\DNGOI\SOURCE\REPOS\DNGOINS\HOLOLENSCOMPANIONKIT\REMOTINGHOSTSAMPLE\LIBRARY\RENDERTARGET.CPP
C:\USERS\DNGOI\SOURCE\REPOS\DNGOINS\HOLOLENSCOMPANIONKIT\REMOTINGHOSTSAMPLE\LIBRARY\OBJ\DEBUG\LIBRARY.PDB
^C:\USERS\DNGOI\SOURCE\REPOS\DNGOINS\HOLOLENSCOMPANIONKIT\REMOTINGHOSTSAMPLE\LIBRARY\SAMPLERSTATES.CPP
C:\USERS\DNGOI\SOURCE\REPOS\DNGOINS\HOLOLENSCOMPANIONKIT\REMOTINGHOSTSAMPLE\LIBRARY\OBJ\DEBUG\LIBRARY.PDB
^C:\USERS\DNGOI\SOURCE\REPOS\DNGOINS\HOLOLENSCOMPANIONKIT\REMOTINGHOSTSAMPLE\LIBRARY\SERVICECONTAINER.CPP
C:\USERS\DNGOI\SOURCE\REPOS\DNGOINS\HOLOLENSCOMPANIONKIT\REMOTINGHOSTSAMPLE\LIBRARY\OBJ\DEBUG\LIBRARY.PDB
^C:\USERS\DNGOI\SOURCE\REPOS\DNGOINS\HOLOLENSCOMPANIONKIT\REMOTINGHOSTSAMPLE\LIBRARY\SKYBOX.CPP
C:\USERS\DNGOI\SOURCE\REPOS\DNGOINS\HOLOLENSCOMPANIONKIT\REMOTINGHOSTSAMPLE\LIBRARY\OBJ\DEBUG\LIBRARY.PDB
^C:\USERS\DNGOI\SOURCE\REPOS\DNGOINS\HOLOLENSCOMPANIONKIT\REMOTINGHOSTSAMPLE\LIBRARY\SPOTLIGHT.CPP
C:\USERS\DNGOI\SOURCE\REPOS\DNGOINS\HOLOLENSCOMPANIONKIT\REMOTINGHOSTSAMPLE\LIBRARY\OBJ\DEBUG\LIBRARY.PDB
^C:\USERS\DNGOI\SOURCE\REPOS\DNGOINS\HOLOLENSCOMPANIONKIT\REMOTINGHOSTSAMPLE\LIBRARY\UTILITY.CPP
C:\USERS\DNGOI\SOURCE\REPOS\DNGOINS\HOLOLENSCOMPANIONKIT\REMOTINGHOSTSAMPLE\LIBRARY\OBJ\DEBUG\LIBRARY.PDB
^C:\USERS\DNGOI\SOURCE\REPOS\DNGOINS\HOLOLENSCOMPANIONKIT\REMOTINGHOSTSAMPLE\LIBRARY\VECTORHELPER.CPP
C:\USERS\DNGOI\SOURCE\REPOS\DNGOINS\HOLOLENSCOMPANIONKIT\REMOTINGHOSTSAMPLE\LIBRARY\OBJ\DEBUG\LIBRARY.PDB
^C:\USERS\DNGOI\SOURCE\REPOS\DNGOINS\HOLOLENSCOMPANIONKIT\REMOTINGHOSTSAMPLE\LIBRARY\FPSCOMPONENT.CPP|C:\USERS\DNGOI\SOURCE\REPOS\DNGOINS\HOLOLENSCOMPANIONKIT\REMOTINGHOSTSAMPLE\LIBRARY\SKYBOX.CPP
C:\USERS\DNGOI\SOURCE\REPOS\DNGOINS\HOLOLENSCOMPANIONKIT\REMOTINGHOSTSAMPLE\LIBRARY\OBJ\DEBUG\LIBRARY.PDB
C:\USERS\DNGOI\SOURCE\REPOS\DNGOINS\HOLOLENSCOMPANIONKIT\REMOTINGHOSTSAMPLE\LIBRARY\OBJ\DEBUG\LIBRARY.IDB
C:\USERS\DNGOI\SOURCE\REPOS\DNGOINS\HOLOLENSCOMPANIONKIT\REMOTINGHOSTSAMPLE\LIBRARY\OBJ\DEBUG\FPSCOMPONENT.OBJ
