^E:\SOURCE\REPOS\DNGOINS\HOLOREMOTING\REMOTINGHOSTSAMPLE\REMOTINGHOSTSAMPLESHARED\PCH.CPP
/c /IE:\SOURCE\REPOS\DNGOINS\HOLOREMOTING\REMOTINGHOSTSAMPLE\PACKAGES\MICROSOFT.HOLOGRAPHIC.REMOTING.1.0.0\BUILD\NATIVE\INCLUDE /IE:\SOURCE\REPOS\DNGOINS\HOLOREMOTING\REMOTINGHOSTSAMPLE\PACKAGES\MICROSOFT.HOLOGRAPHIC.REMOTING.SIMULATION.1.0.0\BUILD\NATIVE\INCLUDE\ /IE:\SOURCE\REPOS\DNGOINS\HOLOREMOTING\REMOTINGHOSTSAMPLE\LIBRARY /I..\REMOTINGHOSTSAMPLESHARED /IE:\SOURCE\REPOS\DNGOINS\HOLOREMOTING\REMOTINGHOSTSAMPLE\REMOTINGHOSTSAMPLEUWP\..\..\..\SRC\STREAMER\INCLUDE /IE:\SOURCE\REPOS\DNGOINS\HOLOREMOTING\REMOTINGHOSTSAMPLE\REMOTINGHOSTSAMPLEUWP\..\..\..\EXTERNALS\RAZZLE /IE:\SOURCE\REPOS\DNGOINS\HOLOREMOTING\REMOTINGHOSTSAMPLE\OBJ\X64DEBUG\REMOTINGHOSTSAMPLEUWP\ /IE:\SOURCE\REPOS\DNGOINS\HOLOREMOTING\REMOTINGHOSTSAMPLE\REMOTINGHOSTSAMPLEUWP\ /I"GENERATED FILES\\" /IE:\SOURCE\REPOS\DNGOINS\HOLOREMOTING\REMOTINGHOSTSAMPLE\OBJ\X64DEBUG\REMOTINGHOSTSAMPLEUWP\ /IE:\SOURCE\REPOS\DNGOINS\HOLOREMOTING\REMOTINGHOSTSAMPLE\REMOTINGHOSTSAMPLESHARED\ /ZI /ZW /ZW:nostdlib /nologo /W3 /WX- /sdl /Od /Oy- /D _DEBUG /D _UNICODE /D UNICODE /D _DEBUG /D WINAPI_FAMILY=WINAPI_FAMILY_APP /D __WRL_NO_DEFAULT_LIB__ /UWINAPI_PARTITION_DESKTOP /Gm- /EHsc /RTC1 /MDd /GS /fp:precise /Zc:wchar_t /Zc:forScope /Zc:inline /Yc"pch.h" /Fp"E:\SOURCE\REPOS\DNGOINS\HOLOREMOTING\REMOTINGHOSTSAMPLE\OBJ\X64DEBUG\REMOTINGHOSTSAMPLEUWP\PCH.PCH" /Fo"E:\SOURCE\REPOS\DNGOINS\HOLOREMOTING\REMOTINGHOSTSAMPLE\OBJ\X64DEBUG\REMOTINGHOSTSAMPLEUWP\\" /Fd"E:\SOURCE\REPOS\DNGOINS\HOLOREMOTING\REMOTINGHOSTSAMPLE\OBJ\X64DEBUG\REMOTINGHOSTSAMPLEUWP\VC140.PDB" /Gd /TP /wd4453 /wd28204 /FU"E:\PROGRAM FILES (X86)\MICROSOFT VISUAL STUDIO 14.0\VC\LIB\STORE\REFERENCES\PLATFORM.WINMD" /FU"C:\PROGRAM FILES (X86)\WINDOWS KITS\10\REFERENCES\WINDOWS.APPLICATIONMODEL.CALLS.CALLSVOIPCONTRACT\1.0.0.0\WINDOWS.APPLICATIONMODEL.CALLS.CALLSVOIPCONTRACT.WINMD" /FU"C:\PROGRAM FILES (X86)\WINDOWS KITS\10\REFERENCES\WINDOWS.DEVICES.PRINTERS.PRINTERSCONTRACT\1.0.0.0\WINDOWS.DEVICES.PRINTERS.PRINTERSCONTRACT.WINMD" /FU"C:\PROGRAM FILES (X86)\WINDOWS KITS\10\REFERENCES\WINDOWS.FOUNDATION.FOUNDATIONCONTRACT\2.0.0.0\WINDOWS.FOUNDATION.FOUNDATIONCONTRACT.WINMD" /FU"C:\PROGRAM FILES (X86)\WINDOWS KITS\10\REFERENCES\WINDOWS.FOUNDATION.UNIVERSALAPICONTRACT\2.0.0.0\WINDOWS.FOUNDATION.UNIVERSALAPICONTRACT.WINMD" /FU"C:\PROGRAM FILES (X86)\WINDOWS KITS\10\REFERENCES\WINDOWS.GRAPHICS.PRINTING3D.PRINTING3DCONTRACT\2.0.0.0\WINDOWS.GRAPHICS.PRINTING3D.PRINTING3DCONTRACT.WINMD" /FU"C:\PROGRAM FILES (X86)\WINDOWS KITS\10\REFERENCES\WINDOWS.NETWORKING.CONNECTIVITY.WWANCONTRACT\1.0.0.0\WINDOWS.NETWORKING.CONNECTIVITY.WWANCONTRACT.WINMD" /analyze- /bigobj  E:\SOURCE\REPOS\DNGOINS\HOLOREMOTING\REMOTINGHOSTSAMPLE\REMOTINGHOSTSAMPLESHARED\PCH.CPP
^E:\SOURCE\REPOS\DNGOINS\HOLOREMOTING\REMOTINGHOSTSAMPLE\REMOTINGHOSTSAMPLESHARED\CONTENT\BASICLOADER.CPP
/c /IE:\SOURCE\REPOS\DNGOINS\HOLOREMOTING\REMOTINGHOSTSAMPLE\PACKAGES\MICROSOFT.HOLOGRAPHIC.REMOTING.1.0.0\BUILD\NATIVE\INCLUDE /IE:\SOURCE\REPOS\DNGOINS\HOLOREMOTING\REMOTINGHOSTSAMPLE\PACKAGES\MICROSOFT.HOLOGRAPHIC.REMOTING.SIMULATION.1.0.0\BUILD\NATIVE\INCLUDE\ /IE:\SOURCE\REPOS\DNGOINS\HOLOREMOTING\REMOTINGHOSTSAMPLE\LIBRARY /I..\REMOTINGHOSTSAMPLESHARED /IE:\SOURCE\REPOS\DNGOINS\HOLOREMOTING\REMOTINGHOSTSAMPLE\REMOTINGHOSTSAMPLEUWP\..\..\..\SRC\STREAMER\INCLUDE /IE:\SOURCE\REPOS\DNGOINS\HOLOREMOTING\REMOTINGHOSTSAMPLE\REMOTINGHOSTSAMPLEUWP\..\..\..\EXTERNALS\RAZZLE /IE:\SOURCE\REPOS\DNGOINS\HOLOREMOTING\REMOTINGHOSTSAMPLE\OBJ\X64DEBUG\REMOTINGHOSTSAMPLEUWP\ /IE:\SOURCE\REPOS\DNGOINS\HOLOREMOTING\REMOTINGHOSTSAMPLE\REMOTINGHOSTSAMPLEUWP\ /I"GENERATED FILES\\" /IE:\SOURCE\REPOS\DNGOINS\HOLOREMOTING\REMOTINGHOSTSAMPLE\OBJ\X64DEBUG\REMOTINGHOSTSAMPLEUWP\ /IE:\SOURCE\REPOS\DNGOINS\HOLOREMOTING\REMOTINGHOSTSAMPLE\REMOTINGHOSTSAMPLESHARED\ /ZI /ZW /ZW:nostdlib /nologo /W3 /WX- /sdl /Od /Oy- /D _DEBUG /D _UNICODE /D UNICODE /D _DEBUG /D WINAPI_FAMILY=WINAPI_FAMILY_APP /D __WRL_NO_DEFAULT_LIB__ /UWINAPI_PARTITION_DESKTOP /Gm- /EHsc /RTC1 /MDd /GS /fp:precise /Zc:wchar_t /Zc:forScope /Zc:inline /Yu"pch.h" /Fp"E:\SOURCE\REPOS\DNGOINS\HOLOREMOTING\REMOTINGHOSTSAMPLE\OBJ\X64DEBUG\REMOTINGHOSTSAMPLEUWP\PCH.PCH" /Fo"E:\SOURCE\REPOS\DNGOINS\HOLOREMOTING\REMOTINGHOSTSAMPLE\OBJ\X64DEBUG\REMOTINGHOSTSAMPLEUWP\\" /Fd"E:\SOURCE\REPOS\DNGOINS\HOLOREMOTING\REMOTINGHOSTSAMPLE\OBJ\X64DEBUG\REMOTINGHOSTSAMPLEUWP\VC140.PDB" /Gd /TP /wd4453 /wd28204 /FU"E:\PROGRAM FILES (X86)\MICROSOFT VISUAL STUDIO 14.0\VC\LIB\STORE\REFERENCES\PLATFORM.WINMD" /FU"C:\PROGRAM FILES (X86)\WINDOWS KITS\10\REFERENCES\WINDOWS.APPLICATIONMODEL.CALLS.CALLSVOIPCONTRACT\1.0.0.0\WINDOWS.APPLICATIONMODEL.CALLS.CALLSVOIPCONTRACT.WINMD" /FU"C:\PROGRAM FILES (X86)\WINDOWS KITS\10\REFERENCES\WINDOWS.DEVICES.PRINTERS.PRINTERSCONTRACT\1.0.0.0\WINDOWS.DEVICES.PRINTERS.PRINTERSCONTRACT.WINMD" /FU"C:\PROGRAM FILES (X86)\WINDOWS KITS\10\REFERENCES\WINDOWS.FOUNDATION.FOUNDATIONCONTRACT\2.0.0.0\WINDOWS.FOUNDATION.FOUNDATIONCONTRACT.WINMD" /FU"C:\PROGRAM FILES (X86)\WINDOWS KITS\10\REFERENCES\WINDOWS.FOUNDATION.UNIVERSALAPICONTRACT\2.0.0.0\WINDOWS.FOUNDATION.UNIVERSALAPICONTRACT.WINMD" /FU"C:\PROGRAM FILES (X86)\WINDOWS KITS\10\REFERENCES\WINDOWS.GRAPHICS.PRINTING3D.PRINTING3DCONTRACT\2.0.0.0\WINDOWS.GRAPHICS.PRINTING3D.PRINTING3DCONTRACT.WINMD" /FU"C:\PROGRAM FILES (X86)\WINDOWS KITS\10\REFERENCES\WINDOWS.NETWORKING.CONNECTIVITY.WWANCONTRACT\1.0.0.0\WINDOWS.NETWORKING.CONNECTIVITY.WWANCONTRACT.WINMD" /analyze- /bigobj  E:\SOURCE\REPOS\DNGOINS\HOLOREMOTING\REMOTINGHOSTSAMPLE\REMOTINGHOSTSAMPLESHARED\CONTENT\BASICLOADER.CPP
^E:\SOURCE\REPOS\DNGOINS\HOLOREMOTING\REMOTINGHOSTSAMPLE\REMOTINGHOSTSAMPLESHARED\CONTENT\BASICREADERWRITER.CPP
/c /IE:\SOURCE\REPOS\DNGOINS\HOLOREMOTING\REMOTINGHOSTSAMPLE\PACKAGES\MICROSOFT.HOLOGRAPHIC.REMOTING.1.0.0\BUILD\NATIVE\INCLUDE /IE:\SOURCE\REPOS\DNGOINS\HOLOREMOTING\REMOTINGHOSTSAMPLE\PACKAGES\MICROSOFT.HOLOGRAPHIC.REMOTING.SIMULATION.1.0.0\BUILD\NATIVE\INCLUDE\ /IE:\SOURCE\REPOS\DNGOINS\HOLOREMOTING\REMOTINGHOSTSAMPLE\LIBRARY /I..\REMOTINGHOSTSAMPLESHARED /IE:\SOURCE\REPOS\DNGOINS\HOLOREMOTING\REMOTINGHOSTSAMPLE\REMOTINGHOSTSAMPLEUWP\..\..\..\SRC\STREAMER\INCLUDE /IE:\SOURCE\REPOS\DNGOINS\HOLOREMOTING\REMOTINGHOSTSAMPLE\REMOTINGHOSTSAMPLEUWP\..\..\..\EXTERNALS\RAZZLE /IE:\SOURCE\REPOS\DNGOINS\HOLOREMOTING\REMOTINGHOSTSAMPLE\OBJ\X64DEBUG\REMOTINGHOSTSAMPLEUWP\ /IE:\SOURCE\REPOS\DNGOINS\HOLOREMOTING\REMOTINGHOSTSAMPLE\REMOTINGHOSTSAMPLEUWP\ /I"GENERATED FILES\\" /IE:\SOURCE\REPOS\DNGOINS\HOLOREMOTING\REMOTINGHOSTSAMPLE\OBJ\X64DEBUG\REMOTINGHOSTSAMPLEUWP\ /IE:\SOURCE\REPOS\DNGOINS\HOLOREMOTING\REMOTINGHOSTSAMPLE\REMOTINGHOSTSAMPLESHARED\ /ZI /ZW /ZW:nostdlib /nologo /W3 /WX- /sdl /Od /Oy- /D _DEBUG /D _UNICODE /D UNICODE /D _DEBUG /D WINAPI_FAMILY=WINAPI_FAMILY_APP /D __WRL_NO_DEFAULT_LIB__ /UWINAPI_PARTITION_DESKTOP /Gm- /EHsc /RTC1 /MDd /GS /fp:precise /Zc:wchar_t /Zc:forScope /Zc:inline /Yu"pch.h" /Fp"E:\SOURCE\REPOS\DNGOINS\HOLOREMOTING\REMOTINGHOSTSAMPLE\OBJ\X64DEBUG\REMOTINGHOSTSAMPLEUWP\PCH.PCH" /Fo"E:\SOURCE\REPOS\DNGOINS\HOLOREMOTING\REMOTINGHOSTSAMPLE\OBJ\X64DEBUG\REMOTINGHOSTSAMPLEUWP\\" /Fd"E:\SOURCE\REPOS\DNGOINS\HOLOREMOTING\REMOTINGHOSTSAMPLE\OBJ\X64DEBUG\REMOTINGHOSTSAMPLEUWP\VC140.PDB" /Gd /TP /wd4453 /wd28204 /FU"E:\PROGRAM FILES (X86)\MICROSOFT VISUAL STUDIO 14.0\VC\LIB\STORE\REFERENCES\PLATFORM.WINMD" /FU"C:\PROGRAM FILES (X86)\WINDOWS KITS\10\REFERENCES\WINDOWS.APPLICATIONMODEL.CALLS.CALLSVOIPCONTRACT\1.0.0.0\WINDOWS.APPLICATIONMODEL.CALLS.CALLSVOIPCONTRACT.WINMD" /FU"C:\PROGRAM FILES (X86)\WINDOWS KITS\10\REFERENCES\WINDOWS.DEVICES.PRINTERS.PRINTERSCONTRACT\1.0.0.0\WINDOWS.DEVICES.PRINTERS.PRINTERSCONTRACT.WINMD" /FU"C:\PROGRAM FILES (X86)\WINDOWS KITS\10\REFERENCES\WINDOWS.FOUNDATION.FOUNDATIONCONTRACT\2.0.0.0\WINDOWS.FOUNDATION.FOUNDATIONCONTRACT.WINMD" /FU"C:\PROGRAM FILES (X86)\WINDOWS KITS\10\REFERENCES\WINDOWS.FOUNDATION.UNIVERSALAPICONTRACT\2.0.0.0\WINDOWS.FOUNDATION.UNIVERSALAPICONTRACT.WINMD" /FU"C:\PROGRAM FILES (X86)\WINDOWS KITS\10\REFERENCES\WINDOWS.GRAPHICS.PRINTING3D.PRINTING3DCONTRACT\2.0.0.0\WINDOWS.GRAPHICS.PRINTING3D.PRINTING3DCONTRACT.WINMD" /FU"C:\PROGRAM FILES (X86)\WINDOWS KITS\10\REFERENCES\WINDOWS.NETWORKING.CONNECTIVITY.WWANCONTRACT\1.0.0.0\WINDOWS.NETWORKING.CONNECTIVITY.WWANCONTRACT.WINMD" /analyze- /bigobj  E:\SOURCE\REPOS\DNGOINS\HOLOREMOTING\REMOTINGHOSTSAMPLE\REMOTINGHOSTSAMPLESHARED\CONTENT\BASICREADERWRITER.CPP
^E:\SOURCE\REPOS\DNGOINS\HOLOREMOTING\REMOTINGHOSTSAMPLE\REMOTINGHOSTSAMPLESHARED\CONTENT\MODELRENDERER.CPP
/c /IE:\SOURCE\REPOS\DNGOINS\HOLOREMOTING\REMOTINGHOSTSAMPLE\PACKAGES\MICROSOFT.HOLOGRAPHIC.REMOTING.1.0.0\BUILD\NATIVE\INCLUDE /IE:\SOURCE\REPOS\DNGOINS\HOLOREMOTING\REMOTINGHOSTSAMPLE\PACKAGES\MICROSOFT.HOLOGRAPHIC.REMOTING.SIMULATION.1.0.0\BUILD\NATIVE\INCLUDE\ /IE:\SOURCE\REPOS\DNGOINS\HOLOREMOTING\REMOTINGHOSTSAMPLE\LIBRARY /I..\REMOTINGHOSTSAMPLESHARED /IE:\SOURCE\REPOS\DNGOINS\HOLOREMOTING\REMOTINGHOSTSAMPLE\REMOTINGHOSTSAMPLEUWP\..\..\..\SRC\STREAMER\INCLUDE /IE:\SOURCE\REPOS\DNGOINS\HOLOREMOTING\REMOTINGHOSTSAMPLE\REMOTINGHOSTSAMPLEUWP\..\..\..\EXTERNALS\RAZZLE /IE:\SOURCE\REPOS\DNGOINS\HOLOREMOTING\REMOTINGHOSTSAMPLE\OBJ\X64DEBUG\REMOTINGHOSTSAMPLEUWP\ /IE:\SOURCE\REPOS\DNGOINS\HOLOREMOTING\REMOTINGHOSTSAMPLE\REMOTINGHOSTSAMPLEUWP\ /I"GENERATED FILES\\" /IE:\SOURCE\REPOS\DNGOINS\HOLOREMOTING\REMOTINGHOSTSAMPLE\OBJ\X64DEBUG\REMOTINGHOSTSAMPLEUWP\ /IE:\SOURCE\REPOS\DNGOINS\HOLOREMOTING\REMOTINGHOSTSAMPLE\REMOTINGHOSTSAMPLESHARED\ /ZI /ZW /ZW:nostdlib /nologo /W3 /WX- /sdl /Od /Oy- /D _DEBUG /D _UNICODE /D UNICODE /D _DEBUG /D WINAPI_FAMILY=WINAPI_FAMILY_APP /D __WRL_NO_DEFAULT_LIB__ /UWINAPI_PARTITION_DESKTOP /Gm- /EHsc /RTC1 /MDd /GS /fp:precise /Zc:wchar_t /Zc:forScope /Zc:inline /Yu"pch.h" /Fp"E:\SOURCE\REPOS\DNGOINS\HOLOREMOTING\REMOTINGHOSTSAMPLE\OBJ\X64DEBUG\REMOTINGHOSTSAMPLEUWP\PCH.PCH" /Fo"E:\SOURCE\REPOS\DNGOINS\HOLOREMOTING\REMOTINGHOSTSAMPLE\OBJ\X64DEBUG\REMOTINGHOSTSAMPLEUWP\\" /Fd"E:\SOURCE\REPOS\DNGOINS\HOLOREMOTING\REMOTINGHOSTSAMPLE\OBJ\X64DEBUG\REMOTINGHOSTSAMPLEUWP\VC140.PDB" /Gd /TP /wd4453 /wd28204 /FU"E:\PROGRAM FILES (X86)\MICROSOFT VISUAL STUDIO 14.0\VC\LIB\STORE\REFERENCES\PLATFORM.WINMD" /FU"C:\PROGRAM FILES (X86)\WINDOWS KITS\10\REFERENCES\WINDOWS.APPLICATIONMODEL.CALLS.CALLSVOIPCONTRACT\1.0.0.0\WINDOWS.APPLICATIONMODEL.CALLS.CALLSVOIPCONTRACT.WINMD" /FU"C:\PROGRAM FILES (X86)\WINDOWS KITS\10\REFERENCES\WINDOWS.DEVICES.PRINTERS.PRINTERSCONTRACT\1.0.0.0\WINDOWS.DEVICES.PRINTERS.PRINTERSCONTRACT.WINMD" /FU"C:\PROGRAM FILES (X86)\WINDOWS KITS\10\REFERENCES\WINDOWS.FOUNDATION.FOUNDATIONCONTRACT\2.0.0.0\WINDOWS.FOUNDATION.FOUNDATIONCONTRACT.WINMD" /FU"C:\PROGRAM FILES (X86)\WINDOWS KITS\10\REFERENCES\WINDOWS.FOUNDATION.UNIVERSALAPICONTRACT\2.0.0.0\WINDOWS.FOUNDATION.UNIVERSALAPICONTRACT.WINMD" /FU"C:\PROGRAM FILES (X86)\WINDOWS KITS\10\REFERENCES\WINDOWS.GRAPHICS.PRINTING3D.PRINTING3DCONTRACT\2.0.0.0\WINDOWS.GRAPHICS.PRINTING3D.PRINTING3DCONTRACT.WINMD" /FU"C:\PROGRAM FILES (X86)\WINDOWS KITS\10\REFERENCES\WINDOWS.NETWORKING.CONNECTIVITY.WWANCONTRACT\1.0.0.0\WINDOWS.NETWORKING.CONNECTIVITY.WWANCONTRACT.WINMD" /analyze- /bigobj  E:\SOURCE\REPOS\DNGOINS\HOLOREMOTING\REMOTINGHOSTSAMPLE\REMOTINGHOSTSAMPLESHARED\CONTENT\MODELRENDERER.CPP
^E:\SOURCE\REPOS\DNGOINS\HOLOREMOTING\REMOTINGHOSTSAMPLE\REMOTINGHOSTSAMPLESHARED\CONTENT\REALTIMESURFACEMESHRENDERER.CPP
/c /IE:\SOURCE\REPOS\DNGOINS\HOLOREMOTING\REMOTINGHOSTSAMPLE\PACKAGES\MICROSOFT.HOLOGRAPHIC.REMOTING.1.0.0\BUILD\NATIVE\INCLUDE /IE:\SOURCE\REPOS\DNGOINS\HOLOREMOTING\REMOTINGHOSTSAMPLE\PACKAGES\MICROSOFT.HOLOGRAPHIC.REMOTING.SIMULATION.1.0.0\BUILD\NATIVE\INCLUDE\ /IE:\SOURCE\REPOS\DNGOINS\HOLOREMOTING\REMOTINGHOSTSAMPLE\LIBRARY /I..\REMOTINGHOSTSAMPLESHARED /IE:\SOURCE\REPOS\DNGOINS\HOLOREMOTING\REMOTINGHOSTSAMPLE\REMOTINGHOSTSAMPLEUWP\..\..\..\SRC\STREAMER\INCLUDE /IE:\SOURCE\REPOS\DNGOINS\HOLOREMOTING\REMOTINGHOSTSAMPLE\REMOTINGHOSTSAMPLEUWP\..\..\..\EXTERNALS\RAZZLE /IE:\SOURCE\REPOS\DNGOINS\HOLOREMOTING\REMOTINGHOSTSAMPLE\OBJ\X64DEBUG\REMOTINGHOSTSAMPLEUWP\ /IE:\SOURCE\REPOS\DNGOINS\HOLOREMOTING\REMOTINGHOSTSAMPLE\REMOTINGHOSTSAMPLEUWP\ /I"GENERATED FILES\\" /IE:\SOURCE\REPOS\DNGOINS\HOLOREMOTING\REMOTINGHOSTSAMPLE\OBJ\X64DEBUG\REMOTINGHOSTSAMPLEUWP\ /IE:\SOURCE\REPOS\DNGOINS\HOLOREMOTING\REMOTINGHOSTSAMPLE\REMOTINGHOSTSAMPLESHARED\ /ZI /ZW /ZW:nostdlib /nologo /W3 /WX- /sdl /Od /Oy- /D _DEBUG /D _UNICODE /D UNICODE /D _DEBUG /D WINAPI_FAMILY=WINAPI_FAMILY_APP /D __WRL_NO_DEFAULT_LIB__ /UWINAPI_PARTITION_DESKTOP /Gm- /EHsc /RTC1 /MDd /GS /fp:precise /Zc:wchar_t /Zc:forScope /Zc:inline /Yu"pch.h" /Fp"E:\SOURCE\REPOS\DNGOINS\HOLOREMOTING\REMOTINGHOSTSAMPLE\OBJ\X64DEBUG\REMOTINGHOSTSAMPLEUWP\PCH.PCH" /Fo"E:\SOURCE\REPOS\DNGOINS\HOLOREMOTING\REMOTINGHOSTSAMPLE\OBJ\X64DEBUG\REMOTINGHOSTSAMPLEUWP\\" /Fd"E:\SOURCE\REPOS\DNGOINS\HOLOREMOTING\REMOTINGHOSTSAMPLE\OBJ\X64DEBUG\REMOTINGHOSTSAMPLEUWP\VC140.PDB" /Gd /TP /wd4453 /wd28204 /FU"E:\PROGRAM FILES (X86)\MICROSOFT VISUAL STUDIO 14.0\VC\LIB\STORE\REFERENCES\PLATFORM.WINMD" /FU"C:\PROGRAM FILES (X86)\WINDOWS KITS\10\REFERENCES\WINDOWS.APPLICATIONMODEL.CALLS.CALLSVOIPCONTRACT\1.0.0.0\WINDOWS.APPLICATIONMODEL.CALLS.CALLSVOIPCONTRACT.WINMD" /FU"C:\PROGRAM FILES (X86)\WINDOWS KITS\10\REFERENCES\WINDOWS.DEVICES.PRINTERS.PRINTERSCONTRACT\1.0.0.0\WINDOWS.DEVICES.PRINTERS.PRINTERSCONTRACT.WINMD" /FU"C:\PROGRAM FILES (X86)\WINDOWS KITS\10\REFERENCES\WINDOWS.FOUNDATION.FOUNDATIONCONTRACT\2.0.0.0\WINDOWS.FOUNDATION.FOUNDATIONCONTRACT.WINMD" /FU"C:\PROGRAM FILES (X86)\WINDOWS KITS\10\REFERENCES\WINDOWS.FOUNDATION.UNIVERSALAPICONTRACT\2.0.0.0\WINDOWS.FOUNDATION.UNIVERSALAPICONTRACT.WINMD" /FU"C:\PROGRAM FILES (X86)\WINDOWS KITS\10\REFERENCES\WINDOWS.GRAPHICS.PRINTING3D.PRINTING3DCONTRACT\2.0.0.0\WINDOWS.GRAPHICS.PRINTING3D.PRINTING3DCONTRACT.WINMD" /FU"C:\PROGRAM FILES (X86)\WINDOWS KITS\10\REFERENCES\WINDOWS.NETWORKING.CONNECTIVITY.WWANCONTRACT\1.0.0.0\WINDOWS.NETWORKING.CONNECTIVITY.WWANCONTRACT.WINMD" /analyze- /bigobj  E:\SOURCE\REPOS\DNGOINS\HOLOREMOTING\REMOTINGHOSTSAMPLE\REMOTINGHOSTSAMPLESHARED\CONTENT\REALTIMESURFACEMESHRENDERER.CPP
^E:\SOURCE\REPOS\DNGOINS\HOLOREMOTING\REMOTINGHOSTSAMPLE\REMOTINGHOSTSAMPLESHARED\CONTENT\SURFACEMESH.CPP
/c /IE:\SOURCE\REPOS\DNGOINS\HOLOREMOTING\REMOTINGHOSTSAMPLE\PACKAGES\MICROSOFT.HOLOGRAPHIC.REMOTING.1.0.0\BUILD\NATIVE\INCLUDE /IE:\SOURCE\REPOS\DNGOINS\HOLOREMOTING\REMOTINGHOSTSAMPLE\PACKAGES\MICROSOFT.HOLOGRAPHIC.REMOTING.SIMULATION.1.0.0\BUILD\NATIVE\INCLUDE\ /IE:\SOURCE\REPOS\DNGOINS\HOLOREMOTING\REMOTINGHOSTSAMPLE\LIBRARY /I..\REMOTINGHOSTSAMPLESHARED /IE:\SOURCE\REPOS\DNGOINS\HOLOREMOTING\REMOTINGHOSTSAMPLE\REMOTINGHOSTSAMPLEUWP\..\..\..\SRC\STREAMER\INCLUDE /IE:\SOURCE\REPOS\DNGOINS\HOLOREMOTING\REMOTINGHOSTSAMPLE\REMOTINGHOSTSAMPLEUWP\..\..\..\EXTERNALS\RAZZLE /IE:\SOURCE\REPOS\DNGOINS\HOLOREMOTING\REMOTINGHOSTSAMPLE\OBJ\X64DEBUG\REMOTINGHOSTSAMPLEUWP\ /IE:\SOURCE\REPOS\DNGOINS\HOLOREMOTING\REMOTINGHOSTSAMPLE\REMOTINGHOSTSAMPLEUWP\ /I"GENERATED FILES\\" /IE:\SOURCE\REPOS\DNGOINS\HOLOREMOTING\REMOTINGHOSTSAMPLE\OBJ\X64DEBUG\REMOTINGHOSTSAMPLEUWP\ /IE:\SOURCE\REPOS\DNGOINS\HOLOREMOTING\REMOTINGHOSTSAMPLE\REMOTINGHOSTSAMPLESHARED\ /ZI /ZW /ZW:nostdlib /nologo /W3 /WX- /sdl /Od /Oy- /D _DEBUG /D _UNICODE /D UNICODE /D _DEBUG /D WINAPI_FAMILY=WINAPI_FAMILY_APP /D __WRL_NO_DEFAULT_LIB__ /UWINAPI_PARTITION_DESKTOP /Gm- /EHsc /RTC1 /MDd /GS /fp:precise /Zc:wchar_t /Zc:forScope /Zc:inline /Yu"pch.h" /Fp"E:\SOURCE\REPOS\DNGOINS\HOLOREMOTING\REMOTINGHOSTSAMPLE\OBJ\X64DEBUG\REMOTINGHOSTSAMPLEUWP\PCH.PCH" /Fo"E:\SOURCE\REPOS\DNGOINS\HOLOREMOTING\REMOTINGHOSTSAMPLE\OBJ\X64DEBUG\REMOTINGHOSTSAMPLEUWP\\" /Fd"E:\SOURCE\REPOS\DNGOINS\HOLOREMOTING\REMOTINGHOSTSAMPLE\OBJ\X64DEBUG\REMOTINGHOSTSAMPLEUWP\VC140.PDB" /Gd /TP /wd4453 /wd28204 /FU"E:\PROGRAM FILES (X86)\MICROSOFT VISUAL STUDIO 14.0\VC\LIB\STORE\REFERENCES\PLATFORM.WINMD" /FU"C:\PROGRAM FILES (X86)\WINDOWS KITS\10\REFERENCES\WINDOWS.APPLICATIONMODEL.CALLS.CALLSVOIPCONTRACT\1.0.0.0\WINDOWS.APPLICATIONMODEL.CALLS.CALLSVOIPCONTRACT.WINMD" /FU"C:\PROGRAM FILES (X86)\WINDOWS KITS\10\REFERENCES\WINDOWS.DEVICES.PRINTERS.PRINTERSCONTRACT\1.0.0.0\WINDOWS.DEVICES.PRINTERS.PRINTERSCONTRACT.WINMD" /FU"C:\PROGRAM FILES (X86)\WINDOWS KITS\10\REFERENCES\WINDOWS.FOUNDATION.FOUNDATIONCONTRACT\2.0.0.0\WINDOWS.FOUNDATION.FOUNDATIONCONTRACT.WINMD" /FU"C:\PROGRAM FILES (X86)\WINDOWS KITS\10\REFERENCES\WINDOWS.FOUNDATION.UNIVERSALAPICONTRACT\2.0.0.0\WINDOWS.FOUNDATION.UNIVERSALAPICONTRACT.WINMD" /FU"C:\PROGRAM FILES (X86)\WINDOWS KITS\10\REFERENCES\WINDOWS.GRAPHICS.PRINTING3D.PRINTING3DCONTRACT\2.0.0.0\WINDOWS.GRAPHICS.PRINTING3D.PRINTING3DCONTRACT.WINMD" /FU"C:\PROGRAM FILES (X86)\WINDOWS KITS\10\REFERENCES\WINDOWS.NETWORKING.CONNECTIVITY.WWANCONTRACT\1.0.0.0\WINDOWS.NETWORKING.CONNECTIVITY.WWANCONTRACT.WINMD" /analyze- /bigobj  E:\SOURCE\REPOS\DNGOINS\HOLOREMOTING\REMOTINGHOSTSAMPLE\REMOTINGHOSTSAMPLESHARED\CONTENT\SURFACEMESH.CPP
^E:\SOURCE\REPOS\DNGOINS\HOLOREMOTING\REMOTINGHOSTSAMPLE\REMOTINGHOSTSAMPLESHARED\DDSTEXTURELOADER.CPP
/c /IE:\SOURCE\REPOS\DNGOINS\HOLOREMOTING\REMOTINGHOSTSAMPLE\PACKAGES\MICROSOFT.HOLOGRAPHIC.REMOTING.1.0.0\BUILD\NATIVE\INCLUDE /IE:\SOURCE\REPOS\DNGOINS\HOLOREMOTING\REMOTINGHOSTSAMPLE\PACKAGES\MICROSOFT.HOLOGRAPHIC.REMOTING.SIMULATION.1.0.0\BUILD\NATIVE\INCLUDE\ /IE:\SOURCE\REPOS\DNGOINS\HOLOREMOTING\REMOTINGHOSTSAMPLE\LIBRARY /I..\REMOTINGHOSTSAMPLESHARED /IE:\SOURCE\REPOS\DNGOINS\HOLOREMOTING\REMOTINGHOSTSAMPLE\REMOTINGHOSTSAMPLEUWP\..\..\..\SRC\STREAMER\INCLUDE /IE:\SOURCE\REPOS\DNGOINS\HOLOREMOTING\REMOTINGHOSTSAMPLE\REMOTINGHOSTSAMPLEUWP\..\..\..\EXTERNALS\RAZZLE /IE:\SOURCE\REPOS\DNGOINS\HOLOREMOTING\REMOTINGHOSTSAMPLE\OBJ\X64DEBUG\REMOTINGHOSTSAMPLEUWP\ /IE:\SOURCE\REPOS\DNGOINS\HOLOREMOTING\REMOTINGHOSTSAMPLE\REMOTINGHOSTSAMPLEUWP\ /I"GENERATED FILES\\" /IE:\SOURCE\REPOS\DNGOINS\HOLOREMOTING\REMOTINGHOSTSAMPLE\OBJ\X64DEBUG\REMOTINGHOSTSAMPLEUWP\ /IE:\SOURCE\REPOS\DNGOINS\HOLOREMOTING\REMOTINGHOSTSAMPLE\REMOTINGHOSTSAMPLESHARED\ /ZI /ZW /ZW:nostdlib /nologo /W3 /WX- /sdl /Od /Oy- /D _DEBUG /D _UNICODE /D UNICODE /D _DEBUG /D WINAPI_FAMILY=WINAPI_FAMILY_APP /D __WRL_NO_DEFAULT_LIB__ /UWINAPI_PARTITION_DESKTOP /Gm- /EHsc /RTC1 /MDd /GS /fp:precise /Zc:wchar_t /Zc:forScope /Zc:inline /Yu"pch.h" /Fp"E:\SOURCE\REPOS\DNGOINS\HOLOREMOTING\REMOTINGHOSTSAMPLE\OBJ\X64DEBUG\REMOTINGHOSTSAMPLEUWP\PCH.PCH" /Fo"E:\SOURCE\REPOS\DNGOINS\HOLOREMOTING\REMOTINGHOSTSAMPLE\OBJ\X64DEBUG\REMOTINGHOSTSAMPLEUWP\\" /Fd"E:\SOURCE\REPOS\DNGOINS\HOLOREMOTING\REMOTINGHOSTSAMPLE\OBJ\X64DEBUG\REMOTINGHOSTSAMPLEUWP\VC140.PDB" /Gd /TP /wd4453 /wd28204 /FU"E:\PROGRAM FILES (X86)\MICROSOFT VISUAL STUDIO 14.0\VC\LIB\STORE\REFERENCES\PLATFORM.WINMD" /FU"C:\PROGRAM FILES (X86)\WINDOWS KITS\10\REFERENCES\WINDOWS.APPLICATIONMODEL.CALLS.CALLSVOIPCONTRACT\1.0.0.0\WINDOWS.APPLICATIONMODEL.CALLS.CALLSVOIPCONTRACT.WINMD" /FU"C:\PROGRAM FILES (X86)\WINDOWS KITS\10\REFERENCES\WINDOWS.DEVICES.PRINTERS.PRINTERSCONTRACT\1.0.0.0\WINDOWS.DEVICES.PRINTERS.PRINTERSCONTRACT.WINMD" /FU"C:\PROGRAM FILES (X86)\WINDOWS KITS\10\REFERENCES\WINDOWS.FOUNDATION.FOUNDATIONCONTRACT\2.0.0.0\WINDOWS.FOUNDATION.FOUNDATIONCONTRACT.WINMD" /FU"C:\PROGRAM FILES (X86)\WINDOWS KITS\10\REFERENCES\WINDOWS.FOUNDATION.UNIVERSALAPICONTRACT\2.0.0.0\WINDOWS.FOUNDATION.UNIVERSALAPICONTRACT.WINMD" /FU"C:\PROGRAM FILES (X86)\WINDOWS KITS\10\REFERENCES\WINDOWS.GRAPHICS.PRINTING3D.PRINTING3DCONTRACT\2.0.0.0\WINDOWS.GRAPHICS.PRINTING3D.PRINTING3DCONTRACT.WINMD" /FU"C:\PROGRAM FILES (X86)\WINDOWS KITS\10\REFERENCES\WINDOWS.NETWORKING.CONNECTIVITY.WWANCONTRACT\1.0.0.0\WINDOWS.NETWORKING.CONNECTIVITY.WWANCONTRACT.WINMD" /analyze- /bigobj  E:\SOURCE\REPOS\DNGOINS\HOLOREMOTING\REMOTINGHOSTSAMPLE\REMOTINGHOSTSAMPLESHARED\DDSTEXTURELOADER.CPP
^E:\SOURCE\REPOS\DNGOINS\HOLOREMOTING\REMOTINGHOSTSAMPLE\REMOTINGHOSTSAMPLESHARED\APPVIEW.CPP
/c /IE:\SOURCE\REPOS\DNGOINS\HOLOREMOTING\REMOTINGHOSTSAMPLE\PACKAGES\MICROSOFT.HOLOGRAPHIC.REMOTING.1.0.0\BUILD\NATIVE\INCLUDE /IE:\SOURCE\REPOS\DNGOINS\HOLOREMOTING\REMOTINGHOSTSAMPLE\PACKAGES\MICROSOFT.HOLOGRAPHIC.REMOTING.SIMULATION.1.0.0\BUILD\NATIVE\INCLUDE\ /IE:\SOURCE\REPOS\DNGOINS\HOLOREMOTING\REMOTINGHOSTSAMPLE\LIBRARY /I..\REMOTINGHOSTSAMPLESHARED /IE:\SOURCE\REPOS\DNGOINS\HOLOREMOTING\REMOTINGHOSTSAMPLE\REMOTINGHOSTSAMPLEUWP\..\..\..\SRC\STREAMER\INCLUDE /IE:\SOURCE\REPOS\DNGOINS\HOLOREMOTING\REMOTINGHOSTSAMPLE\REMOTINGHOSTSAMPLEUWP\..\..\..\EXTERNALS\RAZZLE /IE:\SOURCE\REPOS\DNGOINS\HOLOREMOTING\REMOTINGHOSTSAMPLE\OBJ\X64DEBUG\REMOTINGHOSTSAMPLEUWP\ /IE:\SOURCE\REPOS\DNGOINS\HOLOREMOTING\REMOTINGHOSTSAMPLE\REMOTINGHOSTSAMPLEUWP\ /I"GENERATED FILES\\" /IE:\SOURCE\REPOS\DNGOINS\HOLOREMOTING\REMOTINGHOSTSAMPLE\OBJ\X64DEBUG\REMOTINGHOSTSAMPLEUWP\ /IE:\SOURCE\REPOS\DNGOINS\HOLOREMOTING\REMOTINGHOSTSAMPLE\REMOTINGHOSTSAMPLESHARED\ /ZI /ZW /ZW:nostdlib /nologo /W3 /WX- /sdl /Od /Oy- /D _DEBUG /D _UNICODE /D UNICODE /D _DEBUG /D WINAPI_FAMILY=WINAPI_FAMILY_APP /D __WRL_NO_DEFAULT_LIB__ /UWINAPI_PARTITION_DESKTOP /Gm- /EHsc /RTC1 /MDd /GS /fp:precise /Zc:wchar_t /Zc:forScope /Zc:inline /Yu"pch.h" /Fp"E:\SOURCE\REPOS\DNGOINS\HOLOREMOTING\REMOTINGHOSTSAMPLE\OBJ\X64DEBUG\REMOTINGHOSTSAMPLEUWP\PCH.PCH" /Fo"E:\SOURCE\REPOS\DNGOINS\HOLOREMOTING\REMOTINGHOSTSAMPLE\OBJ\X64DEBUG\REMOTINGHOSTSAMPLEUWP\\" /Fd"E:\SOURCE\REPOS\DNGOINS\HOLOREMOTING\REMOTINGHOSTSAMPLE\OBJ\X64DEBUG\REMOTINGHOSTSAMPLEUWP\VC140.PDB" /Gd /TP /wd4453 /wd28204 /FU"E:\PROGRAM FILES (X86)\MICROSOFT VISUAL STUDIO 14.0\VC\LIB\STORE\REFERENCES\PLATFORM.WINMD" /FU"C:\PROGRAM FILES (X86)\WINDOWS KITS\10\REFERENCES\WINDOWS.APPLICATIONMODEL.CALLS.CALLSVOIPCONTRACT\1.0.0.0\WINDOWS.APPLICATIONMODEL.CALLS.CALLSVOIPCONTRACT.WINMD" /FU"C:\PROGRAM FILES (X86)\WINDOWS KITS\10\REFERENCES\WINDOWS.DEVICES.PRINTERS.PRINTERSCONTRACT\1.0.0.0\WINDOWS.DEVICES.PRINTERS.PRINTERSCONTRACT.WINMD" /FU"C:\PROGRAM FILES (X86)\WINDOWS KITS\10\REFERENCES\WINDOWS.FOUNDATION.FOUNDATIONCONTRACT\2.0.0.0\WINDOWS.FOUNDATION.FOUNDATIONCONTRACT.WINMD" /FU"C:\PROGRAM FILES (X86)\WINDOWS KITS\10\REFERENCES\WINDOWS.FOUNDATION.UNIVERSALAPICONTRACT\2.0.0.0\WINDOWS.FOUNDATION.UNIVERSALAPICONTRACT.WINMD" /FU"C:\PROGRAM FILES (X86)\WINDOWS KITS\10\REFERENCES\WINDOWS.GRAPHICS.PRINTING3D.PRINTING3DCONTRACT\2.0.0.0\WINDOWS.GRAPHICS.PRINTING3D.PRINTING3DCONTRACT.WINMD" /FU"C:\PROGRAM FILES (X86)\WINDOWS KITS\10\REFERENCES\WINDOWS.NETWORKING.CONNECTIVITY.WWANCONTRACT\1.0.0.0\WINDOWS.NETWORKING.CONNECTIVITY.WWANCONTRACT.WINMD" /analyze- /bigobj  E:\SOURCE\REPOS\DNGOINS\HOLOREMOTING\REMOTINGHOSTSAMPLE\REMOTINGHOSTSAMPLESHARED\APPVIEW.CPP
^E:\SOURCE\REPOS\DNGOINS\HOLOREMOTING\REMOTINGHOSTSAMPLE\REMOTINGHOSTSAMPLESHARED\COMMON\CAMERARESOURCES.CPP
/c /IE:\SOURCE\REPOS\DNGOINS\HOLOREMOTING\REMOTINGHOSTSAMPLE\PACKAGES\MICROSOFT.HOLOGRAPHIC.REMOTING.1.0.0\BUILD\NATIVE\INCLUDE /IE:\SOURCE\REPOS\DNGOINS\HOLOREMOTING\REMOTINGHOSTSAMPLE\PACKAGES\MICROSOFT.HOLOGRAPHIC.REMOTING.SIMULATION.1.0.0\BUILD\NATIVE\INCLUDE\ /IE:\SOURCE\REPOS\DNGOINS\HOLOREMOTING\REMOTINGHOSTSAMPLE\LIBRARY /I..\REMOTINGHOSTSAMPLESHARED /IE:\SOURCE\REPOS\DNGOINS\HOLOREMOTING\REMOTINGHOSTSAMPLE\REMOTINGHOSTSAMPLEUWP\..\..\..\SRC\STREAMER\INCLUDE /IE:\SOURCE\REPOS\DNGOINS\HOLOREMOTING\REMOTINGHOSTSAMPLE\REMOTINGHOSTSAMPLEUWP\..\..\..\EXTERNALS\RAZZLE /IE:\SOURCE\REPOS\DNGOINS\HOLOREMOTING\REMOTINGHOSTSAMPLE\OBJ\X64DEBUG\REMOTINGHOSTSAMPLEUWP\ /IE:\SOURCE\REPOS\DNGOINS\HOLOREMOTING\REMOTINGHOSTSAMPLE\REMOTINGHOSTSAMPLEUWP\ /I"GENERATED FILES\\" /IE:\SOURCE\REPOS\DNGOINS\HOLOREMOTING\REMOTINGHOSTSAMPLE\OBJ\X64DEBUG\REMOTINGHOSTSAMPLEUWP\ /IE:\SOURCE\REPOS\DNGOINS\HOLOREMOTING\REMOTINGHOSTSAMPLE\REMOTINGHOSTSAMPLESHARED\ /ZI /ZW /ZW:nostdlib /nologo /W3 /WX- /sdl /Od /Oy- /D _DEBUG /D _UNICODE /D UNICODE /D _DEBUG /D WINAPI_FAMILY=WINAPI_FAMILY_APP /D __WRL_NO_DEFAULT_LIB__ /UWINAPI_PARTITION_DESKTOP /Gm- /EHsc /RTC1 /MDd /GS /fp:precise /Zc:wchar_t /Zc:forScope /Zc:inline /Yu"pch.h" /Fp"E:\SOURCE\REPOS\DNGOINS\HOLOREMOTING\REMOTINGHOSTSAMPLE\OBJ\X64DEBUG\REMOTINGHOSTSAMPLEUWP\PCH.PCH" /Fo"E:\SOURCE\REPOS\DNGOINS\HOLOREMOTING\REMOTINGHOSTSAMPLE\OBJ\X64DEBUG\REMOTINGHOSTSAMPLEUWP\\" /Fd"E:\SOURCE\REPOS\DNGOINS\HOLOREMOTING\REMOTINGHOSTSAMPLE\OBJ\X64DEBUG\REMOTINGHOSTSAMPLEUWP\VC140.PDB" /Gd /TP /wd4453 /wd28204 /FU"E:\PROGRAM FILES (X86)\MICROSOFT VISUAL STUDIO 14.0\VC\LIB\STORE\REFERENCES\PLATFORM.WINMD" /FU"C:\PROGRAM FILES (X86)\WINDOWS KITS\10\REFERENCES\WINDOWS.APPLICATIONMODEL.CALLS.CALLSVOIPCONTRACT\1.0.0.0\WINDOWS.APPLICATIONMODEL.CALLS.CALLSVOIPCONTRACT.WINMD" /FU"C:\PROGRAM FILES (X86)\WINDOWS KITS\10\REFERENCES\WINDOWS.DEVICES.PRINTERS.PRINTERSCONTRACT\1.0.0.0\WINDOWS.DEVICES.PRINTERS.PRINTERSCONTRACT.WINMD" /FU"C:\PROGRAM FILES (X86)\WINDOWS KITS\10\REFERENCES\WINDOWS.FOUNDATION.FOUNDATIONCONTRACT\2.0.0.0\WINDOWS.FOUNDATION.FOUNDATIONCONTRACT.WINMD" /FU"C:\PROGRAM FILES (X86)\WINDOWS KITS\10\REFERENCES\WINDOWS.FOUNDATION.UNIVERSALAPICONTRACT\2.0.0.0\WINDOWS.FOUNDATION.UNIVERSALAPICONTRACT.WINMD" /FU"C:\PROGRAM FILES (X86)\WINDOWS KITS\10\REFERENCES\WINDOWS.GRAPHICS.PRINTING3D.PRINTING3DCONTRACT\2.0.0.0\WINDOWS.GRAPHICS.PRINTING3D.PRINTING3DCONTRACT.WINMD" /FU"C:\PROGRAM FILES (X86)\WINDOWS KITS\10\REFERENCES\WINDOWS.NETWORKING.CONNECTIVITY.WWANCONTRACT\1.0.0.0\WINDOWS.NETWORKING.CONNECTIVITY.WWANCONTRACT.WINMD" /analyze- /bigobj  E:\SOURCE\REPOS\DNGOINS\HOLOREMOTING\REMOTINGHOSTSAMPLE\REMOTINGHOSTSAMPLESHARED\COMMON\CAMERARESOURCES.CPP
^E:\SOURCE\REPOS\DNGOINS\HOLOREMOTING\REMOTINGHOSTSAMPLE\REMOTINGHOSTSAMPLESHARED\COMMON\DEVICERESOURCES.CPP
/c /IE:\SOURCE\REPOS\DNGOINS\HOLOREMOTING\REMOTINGHOSTSAMPLE\PACKAGES\MICROSOFT.HOLOGRAPHIC.REMOTING.1.0.0\BUILD\NATIVE\INCLUDE /IE:\SOURCE\REPOS\DNGOINS\HOLOREMOTING\REMOTINGHOSTSAMPLE\PACKAGES\MICROSOFT.HOLOGRAPHIC.REMOTING.SIMULATION.1.0.0\BUILD\NATIVE\INCLUDE\ /IE:\SOURCE\REPOS\DNGOINS\HOLOREMOTING\REMOTINGHOSTSAMPLE\LIBRARY /I..\REMOTINGHOSTSAMPLESHARED /IE:\SOURCE\REPOS\DNGOINS\HOLOREMOTING\REMOTINGHOSTSAMPLE\REMOTINGHOSTSAMPLEUWP\..\..\..\SRC\STREAMER\INCLUDE /IE:\SOURCE\REPOS\DNGOINS\HOLOREMOTING\REMOTINGHOSTSAMPLE\REMOTINGHOSTSAMPLEUWP\..\..\..\EXTERNALS\RAZZLE /IE:\SOURCE\REPOS\DNGOINS\HOLOREMOTING\REMOTINGHOSTSAMPLE\OBJ\X64DEBUG\REMOTINGHOSTSAMPLEUWP\ /IE:\SOURCE\REPOS\DNGOINS\HOLOREMOTING\REMOTINGHOSTSAMPLE\REMOTINGHOSTSAMPLEUWP\ /I"GENERATED FILES\\" /IE:\SOURCE\REPOS\DNGOINS\HOLOREMOTING\REMOTINGHOSTSAMPLE\OBJ\X64DEBUG\REMOTINGHOSTSAMPLEUWP\ /IE:\SOURCE\REPOS\DNGOINS\HOLOREMOTING\REMOTINGHOSTSAMPLE\REMOTINGHOSTSAMPLESHARED\ /ZI /ZW /ZW:nostdlib /nologo /W3 /WX- /sdl /Od /Oy- /D _DEBUG /D _UNICODE /D UNICODE /D _DEBUG /D WINAPI_FAMILY=WINAPI_FAMILY_APP /D __WRL_NO_DEFAULT_LIB__ /UWINAPI_PARTITION_DESKTOP /Gm- /EHsc /RTC1 /MDd /GS /fp:precise /Zc:wchar_t /Zc:forScope /Zc:inline /Yu"pch.h" /Fp"E:\SOURCE\REPOS\DNGOINS\HOLOREMOTING\REMOTINGHOSTSAMPLE\OBJ\X64DEBUG\REMOTINGHOSTSAMPLEUWP\PCH.PCH" /Fo"E:\SOURCE\REPOS\DNGOINS\HOLOREMOTING\REMOTINGHOSTSAMPLE\OBJ\X64DEBUG\REMOTINGHOSTSAMPLEUWP\\" /Fd"E:\SOURCE\REPOS\DNGOINS\HOLOREMOTING\REMOTINGHOSTSAMPLE\OBJ\X64DEBUG\REMOTINGHOSTSAMPLEUWP\VC140.PDB" /Gd /TP /wd4453 /wd28204 /FU"E:\PROGRAM FILES (X86)\MICROSOFT VISUAL STUDIO 14.0\VC\LIB\STORE\REFERENCES\PLATFORM.WINMD" /FU"C:\PROGRAM FILES (X86)\WINDOWS KITS\10\REFERENCES\WINDOWS.APPLICATIONMODEL.CALLS.CALLSVOIPCONTRACT\1.0.0.0\WINDOWS.APPLICATIONMODEL.CALLS.CALLSVOIPCONTRACT.WINMD" /FU"C:\PROGRAM FILES (X86)\WINDOWS KITS\10\REFERENCES\WINDOWS.DEVICES.PRINTERS.PRINTERSCONTRACT\1.0.0.0\WINDOWS.DEVICES.PRINTERS.PRINTERSCONTRACT.WINMD" /FU"C:\PROGRAM FILES (X86)\WINDOWS KITS\10\REFERENCES\WINDOWS.FOUNDATION.FOUNDATIONCONTRACT\2.0.0.0\WINDOWS.FOUNDATION.FOUNDATIONCONTRACT.WINMD" /FU"C:\PROGRAM FILES (X86)\WINDOWS KITS\10\REFERENCES\WINDOWS.FOUNDATION.UNIVERSALAPICONTRACT\2.0.0.0\WINDOWS.FOUNDATION.UNIVERSALAPICONTRACT.WINMD" /FU"C:\PROGRAM FILES (X86)\WINDOWS KITS\10\REFERENCES\WINDOWS.GRAPHICS.PRINTING3D.PRINTING3DCONTRACT\2.0.0.0\WINDOWS.GRAPHICS.PRINTING3D.PRINTING3DCONTRACT.WINMD" /FU"C:\PROGRAM FILES (X86)\WINDOWS KITS\10\REFERENCES\WINDOWS.NETWORKING.CONNECTIVITY.WWANCONTRACT\1.0.0.0\WINDOWS.NETWORKING.CONNECTIVITY.WWANCONTRACT.WINMD" /analyze- /bigobj  E:\SOURCE\REPOS\DNGOINS\HOLOREMOTING\REMOTINGHOSTSAMPLE\REMOTINGHOSTSAMPLESHARED\COMMON\DEVICERESOURCES.CPP
^E:\SOURCE\REPOS\DNGOINS\HOLOREMOTING\REMOTINGHOSTSAMPLE\REMOTINGHOSTSAMPLESHARED\COMMON\DEVICERESOURCESWINDOWED.CPP
/c /IE:\SOURCE\REPOS\DNGOINS\HOLOREMOTING\REMOTINGHOSTSAMPLE\PACKAGES\MICROSOFT.HOLOGRAPHIC.REMOTING.1.0.0\BUILD\NATIVE\INCLUDE /IE:\SOURCE\REPOS\DNGOINS\HOLOREMOTING\REMOTINGHOSTSAMPLE\PACKAGES\MICROSOFT.HOLOGRAPHIC.REMOTING.SIMULATION.1.0.0\BUILD\NATIVE\INCLUDE\ /IE:\SOURCE\REPOS\DNGOINS\HOLOREMOTING\REMOTINGHOSTSAMPLE\LIBRARY /I..\REMOTINGHOSTSAMPLESHARED /IE:\SOURCE\REPOS\DNGOINS\HOLOREMOTING\REMOTINGHOSTSAMPLE\REMOTINGHOSTSAMPLEUWP\..\..\..\SRC\STREAMER\INCLUDE /IE:\SOURCE\REPOS\DNGOINS\HOLOREMOTING\REMOTINGHOSTSAMPLE\REMOTINGHOSTSAMPLEUWP\..\..\..\EXTERNALS\RAZZLE /IE:\SOURCE\REPOS\DNGOINS\HOLOREMOTING\REMOTINGHOSTSAMPLE\OBJ\X64DEBUG\REMOTINGHOSTSAMPLEUWP\ /IE:\SOURCE\REPOS\DNGOINS\HOLOREMOTING\REMOTINGHOSTSAMPLE\REMOTINGHOSTSAMPLEUWP\ /I"GENERATED FILES\\" /IE:\SOURCE\REPOS\DNGOINS\HOLOREMOTING\REMOTINGHOSTSAMPLE\OBJ\X64DEBUG\REMOTINGHOSTSAMPLEUWP\ /IE:\SOURCE\REPOS\DNGOINS\HOLOREMOTING\REMOTINGHOSTSAMPLE\REMOTINGHOSTSAMPLESHARED\ /ZI /ZW /ZW:nostdlib /nologo /W3 /WX- /sdl /Od /Oy- /D _DEBUG /D _UNICODE /D UNICODE /D _DEBUG /D WINAPI_FAMILY=WINAPI_FAMILY_APP /D __WRL_NO_DEFAULT_LIB__ /UWINAPI_PARTITION_DESKTOP /Gm- /EHsc /RTC1 /MDd /GS /fp:precise /Zc:wchar_t /Zc:forScope /Zc:inline /Yu"pch.h" /Fp"E:\SOURCE\REPOS\DNGOINS\HOLOREMOTING\REMOTINGHOSTSAMPLE\OBJ\X64DEBUG\REMOTINGHOSTSAMPLEUWP\PCH.PCH" /Fo"E:\SOURCE\REPOS\DNGOINS\HOLOREMOTING\REMOTINGHOSTSAMPLE\OBJ\X64DEBUG\REMOTINGHOSTSAMPLEUWP\\" /Fd"E:\SOURCE\REPOS\DNGOINS\HOLOREMOTING\REMOTINGHOSTSAMPLE\OBJ\X64DEBUG\REMOTINGHOSTSAMPLEUWP\VC140.PDB" /Gd /TP /wd4453 /wd28204 /FU"E:\PROGRAM FILES (X86)\MICROSOFT VISUAL STUDIO 14.0\VC\LIB\STORE\REFERENCES\PLATFORM.WINMD" /FU"C:\PROGRAM FILES (X86)\WINDOWS KITS\10\REFERENCES\WINDOWS.APPLICATIONMODEL.CALLS.CALLSVOIPCONTRACT\1.0.0.0\WINDOWS.APPLICATIONMODEL.CALLS.CALLSVOIPCONTRACT.WINMD" /FU"C:\PROGRAM FILES (X86)\WINDOWS KITS\10\REFERENCES\WINDOWS.DEVICES.PRINTERS.PRINTERSCONTRACT\1.0.0.0\WINDOWS.DEVICES.PRINTERS.PRINTERSCONTRACT.WINMD" /FU"C:\PROGRAM FILES (X86)\WINDOWS KITS\10\REFERENCES\WINDOWS.FOUNDATION.FOUNDATIONCONTRACT\2.0.0.0\WINDOWS.FOUNDATION.FOUNDATIONCONTRACT.WINMD" /FU"C:\PROGRAM FILES (X86)\WINDOWS KITS\10\REFERENCES\WINDOWS.FOUNDATION.UNIVERSALAPICONTRACT\2.0.0.0\WINDOWS.FOUNDATION.UNIVERSALAPICONTRACT.WINMD" /FU"C:\PROGRAM FILES (X86)\WINDOWS KITS\10\REFERENCES\WINDOWS.GRAPHICS.PRINTING3D.PRINTING3DCONTRACT\2.0.0.0\WINDOWS.GRAPHICS.PRINTING3D.PRINTING3DCONTRACT.WINMD" /FU"C:\PROGRAM FILES (X86)\WINDOWS KITS\10\REFERENCES\WINDOWS.NETWORKING.CONNECTIVITY.WWANCONTRACT\1.0.0.0\WINDOWS.NETWORKING.CONNECTIVITY.WWANCONTRACT.WINMD" /analyze- /bigobj  E:\SOURCE\REPOS\DNGOINS\HOLOREMOTING\REMOTINGHOSTSAMPLE\REMOTINGHOSTSAMPLESHARED\COMMON\DEVICERESOURCESWINDOWED.CPP
^E:\SOURCE\REPOS\DNGOINS\HOLOREMOTING\REMOTINGHOSTSAMPLE\REMOTINGHOSTSAMPLESHARED\CONTENT\RENDERABLEOBJECT.CPP
/c /IE:\SOURCE\REPOS\DNGOINS\HOLOREMOTING\REMOTINGHOSTSAMPLE\PACKAGES\MICROSOFT.HOLOGRAPHIC.REMOTING.1.0.0\BUILD\NATIVE\INCLUDE /IE:\SOURCE\REPOS\DNGOINS\HOLOREMOTING\REMOTINGHOSTSAMPLE\PACKAGES\MICROSOFT.HOLOGRAPHIC.REMOTING.SIMULATION.1.0.0\BUILD\NATIVE\INCLUDE\ /IE:\SOURCE\REPOS\DNGOINS\HOLOREMOTING\REMOTINGHOSTSAMPLE\LIBRARY /I..\REMOTINGHOSTSAMPLESHARED /IE:\SOURCE\REPOS\DNGOINS\HOLOREMOTING\REMOTINGHOSTSAMPLE\REMOTINGHOSTSAMPLEUWP\..\..\..\SRC\STREAMER\INCLUDE /IE:\SOURCE\REPOS\DNGOINS\HOLOREMOTING\REMOTINGHOSTSAMPLE\REMOTINGHOSTSAMPLEUWP\..\..\..\EXTERNALS\RAZZLE /IE:\SOURCE\REPOS\DNGOINS\HOLOREMOTING\REMOTINGHOSTSAMPLE\OBJ\X64DEBUG\REMOTINGHOSTSAMPLEUWP\ /IE:\SOURCE\REPOS\DNGOINS\HOLOREMOTING\REMOTINGHOSTSAMPLE\REMOTINGHOSTSAMPLEUWP\ /I"GENERATED FILES\\" /IE:\SOURCE\REPOS\DNGOINS\HOLOREMOTING\REMOTINGHOSTSAMPLE\OBJ\X64DEBUG\REMOTINGHOSTSAMPLEUWP\ /IE:\SOURCE\REPOS\DNGOINS\HOLOREMOTING\REMOTINGHOSTSAMPLE\REMOTINGHOSTSAMPLESHARED\ /ZI /ZW /ZW:nostdlib /nologo /W3 /WX- /sdl /Od /Oy- /D _DEBUG /D _UNICODE /D UNICODE /D _DEBUG /D WINAPI_FAMILY=WINAPI_FAMILY_APP /D __WRL_NO_DEFAULT_LIB__ /UWINAPI_PARTITION_DESKTOP /Gm- /EHsc /RTC1 /MDd /GS /fp:precise /Zc:wchar_t /Zc:forScope /Zc:inline /Yu"pch.h" /Fp"E:\SOURCE\REPOS\DNGOINS\HOLOREMOTING\REMOTINGHOSTSAMPLE\OBJ\X64DEBUG\REMOTINGHOSTSAMPLEUWP\PCH.PCH" /Fo"E:\SOURCE\REPOS\DNGOINS\HOLOREMOTING\REMOTINGHOSTSAMPLE\OBJ\X64DEBUG\REMOTINGHOSTSAMPLEUWP\\" /Fd"E:\SOURCE\REPOS\DNGOINS\HOLOREMOTING\REMOTINGHOSTSAMPLE\OBJ\X64DEBUG\REMOTINGHOSTSAMPLEUWP\VC140.PDB" /Gd /TP /wd4453 /wd28204 /FU"E:\PROGRAM FILES (X86)\MICROSOFT VISUAL STUDIO 14.0\VC\LIB\STORE\REFERENCES\PLATFORM.WINMD" /FU"C:\PROGRAM FILES (X86)\WINDOWS KITS\10\REFERENCES\WINDOWS.APPLICATIONMODEL.CALLS.CALLSVOIPCONTRACT\1.0.0.0\WINDOWS.APPLICATIONMODEL.CALLS.CALLSVOIPCONTRACT.WINMD" /FU"C:\PROGRAM FILES (X86)\WINDOWS KITS\10\REFERENCES\WINDOWS.DEVICES.PRINTERS.PRINTERSCONTRACT\1.0.0.0\WINDOWS.DEVICES.PRINTERS.PRINTERSCONTRACT.WINMD" /FU"C:\PROGRAM FILES (X86)\WINDOWS KITS\10\REFERENCES\WINDOWS.FOUNDATION.FOUNDATIONCONTRACT\2.0.0.0\WINDOWS.FOUNDATION.FOUNDATIONCONTRACT.WINMD" /FU"C:\PROGRAM FILES (X86)\WINDOWS KITS\10\REFERENCES\WINDOWS.FOUNDATION.UNIVERSALAPICONTRACT\2.0.0.0\WINDOWS.FOUNDATION.UNIVERSALAPICONTRACT.WINMD" /FU"C:\PROGRAM FILES (X86)\WINDOWS KITS\10\REFERENCES\WINDOWS.GRAPHICS.PRINTING3D.PRINTING3DCONTRACT\2.0.0.0\WINDOWS.GRAPHICS.PRINTING3D.PRINTING3DCONTRACT.WINMD" /FU"C:\PROGRAM FILES (X86)\WINDOWS KITS\10\REFERENCES\WINDOWS.NETWORKING.CONNECTIVITY.WWANCONTRACT\1.0.0.0\WINDOWS.NETWORKING.CONNECTIVITY.WWANCONTRACT.WINMD" /analyze- /bigobj  E:\SOURCE\REPOS\DNGOINS\HOLOREMOTING\REMOTINGHOSTSAMPLE\REMOTINGHOSTSAMPLESHARED\CONTENT\RENDERABLEOBJECT.CPP
^E:\SOURCE\REPOS\DNGOINS\HOLOREMOTING\REMOTINGHOSTSAMPLE\REMOTINGHOSTSAMPLESHARED\CONTENT\SPATIALINPUTHANDLER.CPP
/c /IE:\SOURCE\REPOS\DNGOINS\HOLOREMOTING\REMOTINGHOSTSAMPLE\PACKAGES\MICROSOFT.HOLOGRAPHIC.REMOTING.1.0.0\BUILD\NATIVE\INCLUDE /IE:\SOURCE\REPOS\DNGOINS\HOLOREMOTING\REMOTINGHOSTSAMPLE\PACKAGES\MICROSOFT.HOLOGRAPHIC.REMOTING.SIMULATION.1.0.0\BUILD\NATIVE\INCLUDE\ /IE:\SOURCE\REPOS\DNGOINS\HOLOREMOTING\REMOTINGHOSTSAMPLE\LIBRARY /I..\REMOTINGHOSTSAMPLESHARED /IE:\SOURCE\REPOS\DNGOINS\HOLOREMOTING\REMOTINGHOSTSAMPLE\REMOTINGHOSTSAMPLEUWP\..\..\..\SRC\STREAMER\INCLUDE /IE:\SOURCE\REPOS\DNGOINS\HOLOREMOTING\REMOTINGHOSTSAMPLE\REMOTINGHOSTSAMPLEUWP\..\..\..\EXTERNALS\RAZZLE /IE:\SOURCE\REPOS\DNGOINS\HOLOREMOTING\REMOTINGHOSTSAMPLE\OBJ\X64DEBUG\REMOTINGHOSTSAMPLEUWP\ /IE:\SOURCE\REPOS\DNGOINS\HOLOREMOTING\REMOTINGHOSTSAMPLE\REMOTINGHOSTSAMPLEUWP\ /I"GENERATED FILES\\" /IE:\SOURCE\REPOS\DNGOINS\HOLOREMOTING\REMOTINGHOSTSAMPLE\OBJ\X64DEBUG\REMOTINGHOSTSAMPLEUWP\ /IE:\SOURCE\REPOS\DNGOINS\HOLOREMOTING\REMOTINGHOSTSAMPLE\REMOTINGHOSTSAMPLESHARED\ /ZI /ZW /ZW:nostdlib /nologo /W3 /WX- /sdl /Od /Oy- /D _DEBUG /D _UNICODE /D UNICODE /D _DEBUG /D WINAPI_FAMILY=WINAPI_FAMILY_APP /D __WRL_NO_DEFAULT_LIB__ /UWINAPI_PARTITION_DESKTOP /Gm- /EHsc /RTC1 /MDd /GS /fp:precise /Zc:wchar_t /Zc:forScope /Zc:inline /Yu"pch.h" /Fp"E:\SOURCE\REPOS\DNGOINS\HOLOREMOTING\REMOTINGHOSTSAMPLE\OBJ\X64DEBUG\REMOTINGHOSTSAMPLEUWP\PCH.PCH" /Fo"E:\SOURCE\REPOS\DNGOINS\HOLOREMOTING\REMOTINGHOSTSAMPLE\OBJ\X64DEBUG\REMOTINGHOSTSAMPLEUWP\\" /Fd"E:\SOURCE\REPOS\DNGOINS\HOLOREMOTING\REMOTINGHOSTSAMPLE\OBJ\X64DEBUG\REMOTINGHOSTSAMPLEUWP\VC140.PDB" /Gd /TP /wd4453 /wd28204 /FU"E:\PROGRAM FILES (X86)\MICROSOFT VISUAL STUDIO 14.0\VC\LIB\STORE\REFERENCES\PLATFORM.WINMD" /FU"C:\PROGRAM FILES (X86)\WINDOWS KITS\10\REFERENCES\WINDOWS.APPLICATIONMODEL.CALLS.CALLSVOIPCONTRACT\1.0.0.0\WINDOWS.APPLICATIONMODEL.CALLS.CALLSVOIPCONTRACT.WINMD" /FU"C:\PROGRAM FILES (X86)\WINDOWS KITS\10\REFERENCES\WINDOWS.DEVICES.PRINTERS.PRINTERSCONTRACT\1.0.0.0\WINDOWS.DEVICES.PRINTERS.PRINTERSCONTRACT.WINMD" /FU"C:\PROGRAM FILES (X86)\WINDOWS KITS\10\REFERENCES\WINDOWS.FOUNDATION.FOUNDATIONCONTRACT\2.0.0.0\WINDOWS.FOUNDATION.FOUNDATIONCONTRACT.WINMD" /FU"C:\PROGRAM FILES (X86)\WINDOWS KITS\10\REFERENCES\WINDOWS.FOUNDATION.UNIVERSALAPICONTRACT\2.0.0.0\WINDOWS.FOUNDATION.UNIVERSALAPICONTRACT.WINMD" /FU"C:\PROGRAM FILES (X86)\WINDOWS KITS\10\REFERENCES\WINDOWS.GRAPHICS.PRINTING3D.PRINTING3DCONTRACT\2.0.0.0\WINDOWS.GRAPHICS.PRINTING3D.PRINTING3DCONTRACT.WINMD" /FU"C:\PROGRAM FILES (X86)\WINDOWS KITS\10\REFERENCES\WINDOWS.NETWORKING.CONNECTIVITY.WWANCONTRACT\1.0.0.0\WINDOWS.NETWORKING.CONNECTIVITY.WWANCONTRACT.WINMD" /analyze- /bigobj  E:\SOURCE\REPOS\DNGOINS\HOLOREMOTING\REMOTINGHOSTSAMPLE\REMOTINGHOSTSAMPLESHARED\CONTENT\SPATIALINPUTHANDLER.CPP
^E:\SOURCE\REPOS\DNGOINS\HOLOREMOTING\REMOTINGHOSTSAMPLE\REMOTINGHOSTSAMPLESHARED\CONTENT\SPATIALINPUTRENDERER.CPP
/c /IE:\SOURCE\REPOS\DNGOINS\HOLOREMOTING\REMOTINGHOSTSAMPLE\PACKAGES\MICROSOFT.HOLOGRAPHIC.REMOTING.1.0.0\BUILD\NATIVE\INCLUDE /IE:\SOURCE\REPOS\DNGOINS\HOLOREMOTING\REMOTINGHOSTSAMPLE\PACKAGES\MICROSOFT.HOLOGRAPHIC.REMOTING.SIMULATION.1.0.0\BUILD\NATIVE\INCLUDE\ /IE:\SOURCE\REPOS\DNGOINS\HOLOREMOTING\REMOTINGHOSTSAMPLE\LIBRARY /I..\REMOTINGHOSTSAMPLESHARED /IE:\SOURCE\REPOS\DNGOINS\HOLOREMOTING\REMOTINGHOSTSAMPLE\REMOTINGHOSTSAMPLEUWP\..\..\..\SRC\STREAMER\INCLUDE /IE:\SOURCE\REPOS\DNGOINS\HOLOREMOTING\REMOTINGHOSTSAMPLE\REMOTINGHOSTSAMPLEUWP\..\..\..\EXTERNALS\RAZZLE /IE:\SOURCE\REPOS\DNGOINS\HOLOREMOTING\REMOTINGHOSTSAMPLE\OBJ\X64DEBUG\REMOTINGHOSTSAMPLEUWP\ /IE:\SOURCE\REPOS\DNGOINS\HOLOREMOTING\REMOTINGHOSTSAMPLE\REMOTINGHOSTSAMPLEUWP\ /I"GENERATED FILES\\" /IE:\SOURCE\REPOS\DNGOINS\HOLOREMOTING\REMOTINGHOSTSAMPLE\OBJ\X64DEBUG\REMOTINGHOSTSAMPLEUWP\ /IE:\SOURCE\REPOS\DNGOINS\HOLOREMOTING\REMOTINGHOSTSAMPLE\REMOTINGHOSTSAMPLESHARED\ /ZI /ZW /ZW:nostdlib /nologo /W3 /WX- /sdl /Od /Oy- /D _DEBUG /D _UNICODE /D UNICODE /D _DEBUG /D WINAPI_FAMILY=WINAPI_FAMILY_APP /D __WRL_NO_DEFAULT_LIB__ /UWINAPI_PARTITION_DESKTOP /Gm- /EHsc /RTC1 /MDd /GS /fp:precise /Zc:wchar_t /Zc:forScope /Zc:inline /Yu"pch.h" /Fp"E:\SOURCE\REPOS\DNGOINS\HOLOREMOTING\REMOTINGHOSTSAMPLE\OBJ\X64DEBUG\REMOTINGHOSTSAMPLEUWP\PCH.PCH" /Fo"E:\SOURCE\REPOS\DNGOINS\HOLOREMOTING\REMOTINGHOSTSAMPLE\OBJ\X64DEBUG\REMOTINGHOSTSAMPLEUWP\\" /Fd"E:\SOURCE\REPOS\DNGOINS\HOLOREMOTING\REMOTINGHOSTSAMPLE\OBJ\X64DEBUG\REMOTINGHOSTSAMPLEUWP\VC140.PDB" /Gd /TP /wd4453 /wd28204 /FU"E:\PROGRAM FILES (X86)\MICROSOFT VISUAL STUDIO 14.0\VC\LIB\STORE\REFERENCES\PLATFORM.WINMD" /FU"C:\PROGRAM FILES (X86)\WINDOWS KITS\10\REFERENCES\WINDOWS.APPLICATIONMODEL.CALLS.CALLSVOIPCONTRACT\1.0.0.0\WINDOWS.APPLICATIONMODEL.CALLS.CALLSVOIPCONTRACT.WINMD" /FU"C:\PROGRAM FILES (X86)\WINDOWS KITS\10\REFERENCES\WINDOWS.DEVICES.PRINTERS.PRINTERSCONTRACT\1.0.0.0\WINDOWS.DEVICES.PRINTERS.PRINTERSCONTRACT.WINMD" /FU"C:\PROGRAM FILES (X86)\WINDOWS KITS\10\REFERENCES\WINDOWS.FOUNDATION.FOUNDATIONCONTRACT\2.0.0.0\WINDOWS.FOUNDATION.FOUNDATIONCONTRACT.WINMD" /FU"C:\PROGRAM FILES (X86)\WINDOWS KITS\10\REFERENCES\WINDOWS.FOUNDATION.UNIVERSALAPICONTRACT\2.0.0.0\WINDOWS.FOUNDATION.UNIVERSALAPICONTRACT.WINMD" /FU"C:\PROGRAM FILES (X86)\WINDOWS KITS\10\REFERENCES\WINDOWS.GRAPHICS.PRINTING3D.PRINTING3DCONTRACT\2.0.0.0\WINDOWS.GRAPHICS.PRINTING3D.PRINTING3DCONTRACT.WINMD" /FU"C:\PROGRAM FILES (X86)\WINDOWS KITS\10\REFERENCES\WINDOWS.NETWORKING.CONNECTIVITY.WWANCONTRACT\1.0.0.0\WINDOWS.NETWORKING.CONNECTIVITY.WWANCONTRACT.WINMD" /analyze- /bigobj  E:\SOURCE\REPOS\DNGOINS\HOLOREMOTING\REMOTINGHOSTSAMPLE\REMOTINGHOSTSAMPLESHARED\CONTENT\SPATIALINPUTRENDERER.CPP
^E:\SOURCE\REPOS\DNGOINS\HOLOREMOTING\REMOTINGHOSTSAMPLE\REMOTINGHOSTSAMPLESHARED\CONTENT\SPINNINGCUBERENDERER.CPP
/c /IE:\SOURCE\REPOS\DNGOINS\HOLOREMOTING\REMOTINGHOSTSAMPLE\PACKAGES\MICROSOFT.HOLOGRAPHIC.REMOTING.1.0.0\BUILD\NATIVE\INCLUDE /IE:\SOURCE\REPOS\DNGOINS\HOLOREMOTING\REMOTINGHOSTSAMPLE\PACKAGES\MICROSOFT.HOLOGRAPHIC.REMOTING.SIMULATION.1.0.0\BUILD\NATIVE\INCLUDE\ /IE:\SOURCE\REPOS\DNGOINS\HOLOREMOTING\REMOTINGHOSTSAMPLE\LIBRARY /I..\REMOTINGHOSTSAMPLESHARED /IE:\SOURCE\REPOS\DNGOINS\HOLOREMOTING\REMOTINGHOSTSAMPLE\REMOTINGHOSTSAMPLEUWP\..\..\..\SRC\STREAMER\INCLUDE /IE:\SOURCE\REPOS\DNGOINS\HOLOREMOTING\REMOTINGHOSTSAMPLE\REMOTINGHOSTSAMPLEUWP\..\..\..\EXTERNALS\RAZZLE /IE:\SOURCE\REPOS\DNGOINS\HOLOREMOTING\REMOTINGHOSTSAMPLE\OBJ\X64DEBUG\REMOTINGHOSTSAMPLEUWP\ /IE:\SOURCE\REPOS\DNGOINS\HOLOREMOTING\REMOTINGHOSTSAMPLE\REMOTINGHOSTSAMPLEUWP\ /I"GENERATED FILES\\" /IE:\SOURCE\REPOS\DNGOINS\HOLOREMOTING\REMOTINGHOSTSAMPLE\OBJ\X64DEBUG\REMOTINGHOSTSAMPLEUWP\ /IE:\SOURCE\REPOS\DNGOINS\HOLOREMOTING\REMOTINGHOSTSAMPLE\REMOTINGHOSTSAMPLESHARED\ /ZI /ZW /ZW:nostdlib /nologo /W3 /WX- /sdl /Od /Oy- /D _DEBUG /D _UNICODE /D UNICODE /D _DEBUG /D WINAPI_FAMILY=WINAPI_FAMILY_APP /D __WRL_NO_DEFAULT_LIB__ /UWINAPI_PARTITION_DESKTOP /Gm- /EHsc /RTC1 /MDd /GS /fp:precise /Zc:wchar_t /Zc:forScope /Zc:inline /Yu"pch.h" /Fp"E:\SOURCE\REPOS\DNGOINS\HOLOREMOTING\REMOTINGHOSTSAMPLE\OBJ\X64DEBUG\REMOTINGHOSTSAMPLEUWP\PCH.PCH" /Fo"E:\SOURCE\REPOS\DNGOINS\HOLOREMOTING\REMOTINGHOSTSAMPLE\OBJ\X64DEBUG\REMOTINGHOSTSAMPLEUWP\\" /Fd"E:\SOURCE\REPOS\DNGOINS\HOLOREMOTING\REMOTINGHOSTSAMPLE\OBJ\X64DEBUG\REMOTINGHOSTSAMPLEUWP\VC140.PDB" /Gd /TP /wd4453 /wd28204 /FU"E:\PROGRAM FILES (X86)\MICROSOFT VISUAL STUDIO 14.0\VC\LIB\STORE\REFERENCES\PLATFORM.WINMD" /FU"C:\PROGRAM FILES (X86)\WINDOWS KITS\10\REFERENCES\WINDOWS.APPLICATIONMODEL.CALLS.CALLSVOIPCONTRACT\1.0.0.0\WINDOWS.APPLICATIONMODEL.CALLS.CALLSVOIPCONTRACT.WINMD" /FU"C:\PROGRAM FILES (X86)\WINDOWS KITS\10\REFERENCES\WINDOWS.DEVICES.PRINTERS.PRINTERSCONTRACT\1.0.0.0\WINDOWS.DEVICES.PRINTERS.PRINTERSCONTRACT.WINMD" /FU"C:\PROGRAM FILES (X86)\WINDOWS KITS\10\REFERENCES\WINDOWS.FOUNDATION.FOUNDATIONCONTRACT\2.0.0.0\WINDOWS.FOUNDATION.FOUNDATIONCONTRACT.WINMD" /FU"C:\PROGRAM FILES (X86)\WINDOWS KITS\10\REFERENCES\WINDOWS.FOUNDATION.UNIVERSALAPICONTRACT\2.0.0.0\WINDOWS.FOUNDATION.UNIVERSALAPICONTRACT.WINMD" /FU"C:\PROGRAM FILES (X86)\WINDOWS KITS\10\REFERENCES\WINDOWS.GRAPHICS.PRINTING3D.PRINTING3DCONTRACT\2.0.0.0\WINDOWS.GRAPHICS.PRINTING3D.PRINTING3DCONTRACT.WINMD" /FU"C:\PROGRAM FILES (X86)\WINDOWS KITS\10\REFERENCES\WINDOWS.NETWORKING.CONNECTIVITY.WWANCONTRACT\1.0.0.0\WINDOWS.NETWORKING.CONNECTIVITY.WWANCONTRACT.WINMD" /analyze- /bigobj  E:\SOURCE\REPOS\DNGOINS\HOLOREMOTING\REMOTINGHOSTSAMPLE\REMOTINGHOSTSAMPLESHARED\CONTENT\SPINNINGCUBERENDERER.CPP
^E:\SOURCE\REPOS\DNGOINS\HOLOREMOTING\REMOTINGHOSTSAMPLE\REMOTINGHOSTSAMPLEUWP\REMOTINGHOSTSAMPLEUWP.CPP
/c /IE:\SOURCE\REPOS\DNGOINS\HOLOREMOTING\REMOTINGHOSTSAMPLE\PACKAGES\MICROSOFT.HOLOGRAPHIC.REMOTING.1.0.0\BUILD\NATIVE\INCLUDE /IE:\SOURCE\REPOS\DNGOINS\HOLOREMOTING\REMOTINGHOSTSAMPLE\PACKAGES\MICROSOFT.HOLOGRAPHIC.REMOTING.SIMULATION.1.0.0\BUILD\NATIVE\INCLUDE\ /IE:\SOURCE\REPOS\DNGOINS\HOLOREMOTING\REMOTINGHOSTSAMPLE\LIBRARY /I..\REMOTINGHOSTSAMPLESHARED /IE:\SOURCE\REPOS\DNGOINS\HOLOREMOTING\REMOTINGHOSTSAMPLE\REMOTINGHOSTSAMPLEUWP\..\..\..\SRC\STREAMER\INCLUDE /IE:\SOURCE\REPOS\DNGOINS\HOLOREMOTING\REMOTINGHOSTSAMPLE\REMOTINGHOSTSAMPLEUWP\..\..\..\EXTERNALS\RAZZLE /IE:\SOURCE\REPOS\DNGOINS\HOLOREMOTING\REMOTINGHOSTSAMPLE\OBJ\X64DEBUG\REMOTINGHOSTSAMPLEUWP\ /IE:\SOURCE\REPOS\DNGOINS\HOLOREMOTING\REMOTINGHOSTSAMPLE\REMOTINGHOSTSAMPLEUWP\ /I"GENERATED FILES\\" /IE:\SOURCE\REPOS\DNGOINS\HOLOREMOTING\REMOTINGHOSTSAMPLE\OBJ\X64DEBUG\REMOTINGHOSTSAMPLEUWP\ /IE:\SOURCE\REPOS\DNGOINS\HOLOREMOTING\REMOTINGHOSTSAMPLE\REMOTINGHOSTSAMPLESHARED\ /ZI /ZW /ZW:nostdlib /nologo /W3 /WX- /sdl /Od /Oy- /D _DEBUG /D _UNICODE /D UNICODE /D _DEBUG /D WINAPI_FAMILY=WINAPI_FAMILY_APP /D __WRL_NO_DEFAULT_LIB__ /UWINAPI_PARTITION_DESKTOP /Gm- /EHsc /RTC1 /MDd /GS /fp:precise /Zc:wchar_t /Zc:forScope /Zc:inline /Yu"..\RemotingHostSampleShared\pch.h" /Fp"E:\SOURCE\REPOS\DNGOINS\HOLOREMOTING\REMOTINGHOSTSAMPLE\OBJ\X64DEBUG\REMOTINGHOSTSAMPLEUWP\PCH.PCH" /Fo"E:\SOURCE\REPOS\DNGOINS\HOLOREMOTING\REMOTINGHOSTSAMPLE\OBJ\X64DEBUG\REMOTINGHOSTSAMPLEUWP\\" /Fd"E:\SOURCE\REPOS\DNGOINS\HOLOREMOTING\REMOTINGHOSTSAMPLE\OBJ\X64DEBUG\REMOTINGHOSTSAMPLEUWP\VC140.PDB" /Gd /TP /wd4453 /wd28204 /FU"E:\PROGRAM FILES (X86)\MICROSOFT VISUAL STUDIO 14.0\VC\LIB\STORE\REFERENCES\PLATFORM.WINMD" /FU"C:\PROGRAM FILES (X86)\WINDOWS KITS\10\REFERENCES\WINDOWS.APPLICATIONMODEL.CALLS.CALLSVOIPCONTRACT\1.0.0.0\WINDOWS.APPLICATIONMODEL.CALLS.CALLSVOIPCONTRACT.WINMD" /FU"C:\PROGRAM FILES (X86)\WINDOWS KITS\10\REFERENCES\WINDOWS.DEVICES.PRINTERS.PRINTERSCONTRACT\1.0.0.0\WINDOWS.DEVICES.PRINTERS.PRINTERSCONTRACT.WINMD" /FU"C:\PROGRAM FILES (X86)\WINDOWS KITS\10\REFERENCES\WINDOWS.FOUNDATION.FOUNDATIONCONTRACT\2.0.0.0\WINDOWS.FOUNDATION.FOUNDATIONCONTRACT.WINMD" /FU"C:\PROGRAM FILES (X86)\WINDOWS KITS\10\REFERENCES\WINDOWS.FOUNDATION.UNIVERSALAPICONTRACT\2.0.0.0\WINDOWS.FOUNDATION.UNIVERSALAPICONTRACT.WINMD" /FU"C:\PROGRAM FILES (X86)\WINDOWS KITS\10\REFERENCES\WINDOWS.GRAPHICS.PRINTING3D.PRINTING3DCONTRACT\2.0.0.0\WINDOWS.GRAPHICS.PRINTING3D.PRINTING3DCONTRACT.WINMD" /FU"C:\PROGRAM FILES (X86)\WINDOWS KITS\10\REFERENCES\WINDOWS.NETWORKING.CONNECTIVITY.WWANCONTRACT\1.0.0.0\WINDOWS.NETWORKING.CONNECTIVITY.WWANCONTRACT.WINMD" /analyze- /bigobj  E:\SOURCE\REPOS\DNGOINS\HOLOREMOTING\REMOTINGHOSTSAMPLE\REMOTINGHOSTSAMPLEUWP\REMOTINGHOSTSAMPLEUWP.CPP
^E:\SOURCE\REPOS\DNGOINS\HOLOREMOTING\REMOTINGHOSTSAMPLE\REMOTINGHOSTSAMPLESHARED\APPMAIN.CPP
/c /IE:\SOURCE\REPOS\DNGOINS\HOLOREMOTING\REMOTINGHOSTSAMPLE\PACKAGES\MICROSOFT.HOLOGRAPHIC.REMOTING.1.0.0\BUILD\NATIVE\INCLUDE /IE:\SOURCE\REPOS\DNGOINS\HOLOREMOTING\REMOTINGHOSTSAMPLE\PACKAGES\MICROSOFT.HOLOGRAPHIC.REMOTING.SIMULATION.1.0.0\BUILD\NATIVE\INCLUDE\ /IE:\SOURCE\REPOS\DNGOINS\HOLOREMOTING\REMOTINGHOSTSAMPLE\LIBRARY /I..\REMOTINGHOSTSAMPLESHARED /IE:\SOURCE\REPOS\DNGOINS\HOLOREMOTING\REMOTINGHOSTSAMPLE\REMOTINGHOSTSAMPLEUWP\..\..\..\SRC\STREAMER\INCLUDE /IE:\SOURCE\REPOS\DNGOINS\HOLOREMOTING\REMOTINGHOSTSAMPLE\REMOTINGHOSTSAMPLEUWP\..\..\..\EXTERNALS\RAZZLE /IE:\SOURCE\REPOS\DNGOINS\HOLOREMOTING\REMOTINGHOSTSAMPLE\OBJ\X64DEBUG\REMOTINGHOSTSAMPLEUWP\ /IE:\SOURCE\REPOS\DNGOINS\HOLOREMOTING\REMOTINGHOSTSAMPLE\REMOTINGHOSTSAMPLEUWP\ /I"GENERATED FILES\\" /IE:\SOURCE\REPOS\DNGOINS\HOLOREMOTING\REMOTINGHOSTSAMPLE\OBJ\X64DEBUG\REMOTINGHOSTSAMPLEUWP\ /IE:\SOURCE\REPOS\DNGOINS\HOLOREMOTING\REMOTINGHOSTSAMPLE\REMOTINGHOSTSAMPLESHARED\ /ZI /ZW /ZW:nostdlib /nologo /W3 /WX- /sdl /Od /Oy- /D _DEBUG /D _UNICODE /D UNICODE /D _DEBUG /D WINAPI_FAMILY=WINAPI_FAMILY_APP /D __WRL_NO_DEFAULT_LIB__ /UWINAPI_PARTITION_DESKTOP /Gm- /EHsc /RTC1 /MDd /GS /fp:precise /Zc:wchar_t /Zc:forScope /Zc:inline /Yu"pch.h" /Fp"E:\SOURCE\REPOS\DNGOINS\HOLOREMOTING\REMOTINGHOSTSAMPLE\OBJ\X64DEBUG\REMOTINGHOSTSAMPLEUWP\PCH.PCH" /Fo"E:\SOURCE\REPOS\DNGOINS\HOLOREMOTING\REMOTINGHOSTSAMPLE\OBJ\X64DEBUG\REMOTINGHOSTSAMPLEUWP\\" /Fd"E:\SOURCE\REPOS\DNGOINS\HOLOREMOTING\REMOTINGHOSTSAMPLE\OBJ\X64DEBUG\REMOTINGHOSTSAMPLEUWP\VC140.PDB" /Gd /TP /wd4453 /wd28204 /FU"E:\PROGRAM FILES (X86)\MICROSOFT VISUAL STUDIO 14.0\VC\LIB\STORE\REFERENCES\PLATFORM.WINMD" /FU"C:\PROGRAM FILES (X86)\WINDOWS KITS\10\REFERENCES\WINDOWS.APPLICATIONMODEL.CALLS.CALLSVOIPCONTRACT\1.0.0.0\WINDOWS.APPLICATIONMODEL.CALLS.CALLSVOIPCONTRACT.WINMD" /FU"C:\PROGRAM FILES (X86)\WINDOWS KITS\10\REFERENCES\WINDOWS.DEVICES.PRINTERS.PRINTERSCONTRACT\1.0.0.0\WINDOWS.DEVICES.PRINTERS.PRINTERSCONTRACT.WINMD" /FU"C:\PROGRAM FILES (X86)\WINDOWS KITS\10\REFERENCES\WINDOWS.FOUNDATION.FOUNDATIONCONTRACT\2.0.0.0\WINDOWS.FOUNDATION.FOUNDATIONCONTRACT.WINMD" /FU"C:\PROGRAM FILES (X86)\WINDOWS KITS\10\REFERENCES\WINDOWS.FOUNDATION.UNIVERSALAPICONTRACT\2.0.0.0\WINDOWS.FOUNDATION.UNIVERSALAPICONTRACT.WINMD" /FU"C:\PROGRAM FILES (X86)\WINDOWS KITS\10\REFERENCES\WINDOWS.GRAPHICS.PRINTING3D.PRINTING3DCONTRACT\2.0.0.0\WINDOWS.GRAPHICS.PRINTING3D.PRINTING3DCONTRACT.WINMD" /FU"C:\PROGRAM FILES (X86)\WINDOWS KITS\10\REFERENCES\WINDOWS.NETWORKING.CONNECTIVITY.WWANCONTRACT\1.0.0.0\WINDOWS.NETWORKING.CONNECTIVITY.WWANCONTRACT.WINMD" /analyze- /bigobj  E:\SOURCE\REPOS\DNGOINS\HOLOREMOTING\REMOTINGHOSTSAMPLE\REMOTINGHOSTSAMPLESHARED\APPMAIN.CPP
