^C:\USERS\DNGOI\SOURCE\REPOS\DNGOINS\HOLOLENSCOMPANIONKIT\REMOTINGHOSTSAMPLE\LIBRARY\OBJ\X64\DEBUG\BLENDSTATES.OBJ|C:\USERS\DNGOI\SOURCE\REPOS\DNGOINS\HOLOLENSCOMPANIONKIT\REMOTINGHOSTSAMPLE\LIBRARY\OBJ\X64\DEBUG\CAMERA.OBJ|C:\USERS\DNGOI\SOURCE\REPOS\DNGOINS\HOLOLENSCOMPANIONKIT\REMOTINGHOSTSAMPLE\LIBRARY\OBJ\X64\DEBUG\COLORHELPER.OBJ|C:\USERS\DNGOI\SOURCE\REPOS\DNGOINS\HOLOLENSCOMPANIONKIT\REMOTINGHOSTSAMPLE\LIBRARY\OBJ\X64\DEBUG\DIRECTIONALLIGHT.OBJ|C:\USERS\DNGOI\SOURCE\REPOS\DNGOINS\HOLOLENSCOMPANIONKIT\REMOTINGHOSTSAMPLE\LIBRARY\OBJ\X64\DEBUG\DRAWABLEGAMECOMPONENT.OBJ|C:\USERS\DNGOI\SOURCE\REPOS\DNGOINS\HOLOLENSCOMPANIONKIT\REMOTINGHOSTSAMPLE\LIBRARY\OBJ\X64\DEBUG\FIRSTPERSONCAMERA.OBJ|C:\USERS\DNGOI\SOURCE\REPOS\DNGOINS\HOLOLENSCOMPANIONKIT\REMOTINGHOSTSAMPLE\LIBRARY\OBJ\X64\DEBUG\FPSCOMPONENT.OBJ|C:\USERS\DNGOI\SOURCE\REPOS\DNGOINS\HOLOLENSCOMPANIONKIT\REMOTINGHOSTSAMPLE\LIBRARY\OBJ\X64\DEBUG\GAME.OBJ|C:\USERS\DNGOI\SOURCE\REPOS\DNGOINS\HOLOLENSCOMPANIONKIT\REMOTINGHOSTSAMPLE\LIBRARY\OBJ\X64\DEBUG\GAMECLOCK.OBJ|C:\USERS\DNGOI\SOURCE\REPOS\DNGOINS\HOLOLENSCOMPANIONKIT\REMOTINGHOSTSAMPLE\LIBRARY\OBJ\X64\DEBUG\GAMECOMPONENT.OBJ|C:\USERS\DNGOI\SOURCE\REPOS\DNGOINS\HOLOLENSCOMPANIONKIT\REMOTINGHOSTSAMPLE\LIBRARY\OBJ\X64\DEBUG\GAMEEXCEPTION.OBJ|C:\USERS\DNGOI\SOURCE\REPOS\DNGOINS\HOLOLENSCOMPANIONKIT\REMOTINGHOSTSAMPLE\LIBRARY\OBJ\X64\DEBUG\GAMETIME.OBJ|C:\USERS\DNGOI\SOURCE\REPOS\DNGOINS\HOLOLENSCOMPANIONKIT\REMOTINGHOSTSAMPLE\LIBRARY\OBJ\X64\DEBUG\GRID.OBJ|C:\USERS\DNGOI\SOURCE\REPOS\DNGOINS\HOLOLENSCOMPANIONKIT\REMOTINGHOSTSAMPLE\LIBRARY\OBJ\X64\DEBUG\KEYBOARD.OBJ|C:\USERS\DNGOI\SOURCE\REPOS\DNGOINS\HOLOLENSCOMPANIONKIT\REMOTINGHOSTSAMPLE\LIBRARY\OBJ\X64\DEBUG\LIGHT.OBJ|C:\USERS\DNGOI\SOURCE\REPOS\DNGOINS\HOLOLENSCOMPANIONKIT\REMOTINGHOSTSAMPLE\LIBRARY\OBJ\X64\DEBUG\MATRIXHELPER.OBJ|C:\USERS\DNGOI\SOURCE\REPOS\DNGOINS\HOLOLENSCOMPANIONKIT\REMOTINGHOSTSAMPLE\LIBRARY\OBJ\X64\DEBUG\MESH.OBJ|C:\USERS\DNGOI\SOURCE\REPOS\DNGOINS\HOLOLENSCOMPANIONKIT\REMOTINGHOSTSAMPLE\LIBRARY\OBJ\X64\DEBUG\MODEL.OBJ|C:\USERS\DNGOI\SOURCE\REPOS\DNGOINS\HOLOLENSCOMPANIONKIT\REMOTINGHOSTSAMPLE\LIBRARY\OBJ\X64\DEBUG\MODELMATERIAL.OBJ|C:\USERS\DNGOI\SOURCE\REPOS\DNGOINS\HOLOLENSCOMPANIONKIT\REMOTINGHOSTSAMPLE\LIBRARY\OBJ\X64\DEBUG\MOUSE.OBJ|C:\USERS\DNGOI\SOURCE\REPOS\DNGOINS\HOLOLENSCOMPANIONKIT\REMOTINGHOSTSAMPLE\LIBRARY\OBJ\X64\DEBUG\POINTLIGHT.OBJ|C:\USERS\DNGOI\SOURCE\REPOS\DNGOINS\HOLOLENSCOMPANIONKIT\REMOTINGHOSTSAMPLE\LIBRARY\OBJ\X64\DEBUG\PROXYMODEL.OBJ|C:\USERS\DNGOI\SOURCE\REPOS\DNGOINS\HOLOLENSCOMPANIONKIT\REMOTINGHOSTSAMPLE\LIBRARY\OBJ\X64\DEBUG\RASTERIZERSTATES.OBJ|C:\USERS\DNGOI\SOURCE\REPOS\DNGOINS\HOLOLENSCOMPANIONKIT\REMOTINGHOSTSAMPLE\LIBRARY\OBJ\X64\DEBUG\RENDERSTATEHELPER.OBJ|C:\USERS\DNGOI\SOURCE\REPOS\DNGOINS\HOLOLENSCOMPANIONKIT\REMOTINGHOSTSAMPLE\LIBRARY\OBJ\X64\DEBUG\RENDERTARGET.OBJ|C:\USERS\DNGOI\SOURCE\REPOS\DNGOINS\HOLOLENSCOMPANIONKIT\REMOTINGHOSTSAMPLE\LIBRARY\OBJ\X64\DEBUG\SAMPLERSTATES.OBJ|C:\USERS\DNGOI\SOURCE\REPOS\DNGOINS\HOLOLENSCOMPANIONKIT\REMOTINGHOSTSAMPLE\LIBRARY\OBJ\X64\DEBUG\SERVICECONTAINER.OBJ|C:\USERS\DNGOI\SOURCE\REPOS\DNGOINS\HOLOLENSCOMPANIONKIT\REMOTINGHOSTSAMPLE\LIBRARY\OBJ\X64\DEBUG\SKYBOX.OBJ|C:\USERS\DNGOI\SOURCE\REPOS\DNGOINS\HOLOLENSCOMPANIONKIT\REMOTINGHOSTSAMPLE\LIBRARY\OBJ\X64\DEBUG\SPOTLIGHT.OBJ|C:\USERS\DNGOI\SOURCE\REPOS\DNGOINS\HOLOLENSCOMPANIONKIT\REMOTINGHOSTSAMPLE\LIBRARY\OBJ\X64\DEBUG\UTILITY.OBJ|C:\USERS\DNGOI\SOURCE\REPOS\DNGOINS\HOLOLENSCOMPANIONKIT\REMOTINGHOSTSAMPLE\LIBRARY\OBJ\X64\DEBUG\VECTORHELPER.OBJ
E:\PROGRAM FILES (X86)\MICROSOFT VISUAL STUDIO 14.0\VC\BIN\X86_AMD64\VCTIP.EXE
C:\WINDOWS\SYSTEM32\TZRES.DLL
C:\WINDOWS\GLOBALIZATION\SORTING\SORTDEFAULT.NLS
C:\USERS\DNGOI\SOURCE\REPOS\DNGOINS\HOLOLENSCOMPANIONKIT\REMOTINGHOSTSAMPLE\LIBRARY\OBJ\X64\DEBUG\BLENDSTATES.OBJ
C:\USERS\DNGOI\SOURCE\REPOS\DNGOINS\HOLOLENSCOMPANIONKIT\REMOTINGHOSTSAMPLE\LIBRARY\OBJ\X64\DEBUG\CAMERA.OBJ
C:\USERS\DNGOI\SOURCE\REPOS\DNGOINS\HOLOLENSCOMPANIONKIT\REMOTINGHOSTSAMPLE\LIBRARY\OBJ\X64\DEBUG\COLORHELPER.OBJ
C:\USERS\DNGOI\SOURCE\REPOS\DNGOINS\HOLOLENSCOMPANIONKIT\REMOTINGHOSTSAMPLE\LIBRARY\OBJ\X64\DEBUG\DIRECTIONALLIGHT.OBJ
C:\USERS\DNGOI\SOURCE\REPOS\DNGOINS\HOLOLENSCOMPANIONKIT\REMOTINGHOSTSAMPLE\LIBRARY\OBJ\X64\DEBUG\DRAWABLEGAMECOMPONENT.OBJ
C:\USERS\DNGOI\SOURCE\REPOS\DNGOINS\HOLOLENSCOMPANIONKIT\REMOTINGHOSTSAMPLE\LIBRARY\OBJ\X64\DEBUG\FIRSTPERSONCAMERA.OBJ
C:\USERS\DNGOI\SOURCE\REPOS\DNGOINS\HOLOLENSCOMPANIONKIT\REMOTINGHOSTSAMPLE\LIBRARY\OBJ\X64\DEBUG\FPSCOMPONENT.OBJ
C:\USERS\DNGOI\SOURCE\REPOS\DNGOINS\HOLOLENSCOMPANIONKIT\REMOTINGHOSTSAMPLE\LIBRARY\OBJ\X64\DEBUG\GAME.OBJ
C:\USERS\DNGOI\SOURCE\REPOS\DNGOINS\HOLOLENSCOMPANIONKIT\REMOTINGHOSTSAMPLE\LIBRARY\OBJ\X64\DEBUG\GAMECLOCK.OBJ
C:\USERS\DNGOI\SOURCE\REPOS\DNGOINS\HOLOLENSCOMPANIONKIT\REMOTINGHOSTSAMPLE\LIBRARY\OBJ\X64\DEBUG\GAMECOMPONENT.OBJ
C:\USERS\DNGOI\SOURCE\REPOS\DNGOINS\HOLOLENSCOMPANIONKIT\REMOTINGHOSTSAMPLE\LIBRARY\OBJ\X64\DEBUG\GAMEEXCEPTION.OBJ
C:\USERS\DNGOI\SOURCE\REPOS\DNGOINS\HOLOLENSCOMPANIONKIT\REMOTINGHOSTSAMPLE\LIBRARY\OBJ\X64\DEBUG\GAMETIME.OBJ
C:\USERS\DNGOI\SOURCE\REPOS\DNGOINS\HOLOLENSCOMPANIONKIT\REMOTINGHOSTSAMPLE\LIBRARY\OBJ\X64\DEBUG\GRID.OBJ
C:\USERS\DNGOI\SOURCE\REPOS\DNGOINS\HOLOLENSCOMPANIONKIT\REMOTINGHOSTSAMPLE\LIBRARY\OBJ\X64\DEBUG\KEYBOARD.OBJ
C:\USERS\DNGOI\SOURCE\REPOS\DNGOINS\HOLOLENSCOMPANIONKIT\REMOTINGHOSTSAMPLE\LIBRARY\OBJ\X64\DEBUG\LIGHT.OBJ
C:\USERS\DNGOI\SOURCE\REPOS\DNGOINS\HOLOLENSCOMPANIONKIT\REMOTINGHOSTSAMPLE\LIBRARY\OBJ\X64\DEBUG\MATRIXHELPER.OBJ
C:\USERS\DNGOI\SOURCE\REPOS\DNGOINS\HOLOLENSCOMPANIONKIT\REMOTINGHOSTSAMPLE\LIBRARY\OBJ\X64\DEBUG\MESH.OBJ
C:\USERS\DNGOI\SOURCE\REPOS\DNGOINS\HOLOLENSCOMPANIONKIT\REMOTINGHOSTSAMPLE\LIBRARY\OBJ\X64\DEBUG\MODEL.OBJ
C:\USERS\DNGOI\SOURCE\REPOS\DNGOINS\HOLOLENSCOMPANIONKIT\REMOTINGHOSTSAMPLE\LIBRARY\OBJ\X64\DEBUG\MODELMATERIAL.OBJ
C:\USERS\DNGOI\SOURCE\REPOS\DNGOINS\HOLOLENSCOMPANIONKIT\REMOTINGHOSTSAMPLE\LIBRARY\OBJ\X64\DEBUG\MOUSE.OBJ
C:\USERS\DNGOI\SOURCE\REPOS\DNGOINS\HOLOLENSCOMPANIONKIT\REMOTINGHOSTSAMPLE\LIBRARY\OBJ\X64\DEBUG\POINTLIGHT.OBJ
C:\USERS\DNGOI\SOURCE\REPOS\DNGOINS\HOLOLENSCOMPANIONKIT\REMOTINGHOSTSAMPLE\LIBRARY\OBJ\X64\DEBUG\PROXYMODEL.OBJ
C:\USERS\DNGOI\SOURCE\REPOS\DNGOINS\HOLOLENSCOMPANIONKIT\REMOTINGHOSTSAMPLE\LIBRARY\OBJ\X64\DEBUG\RASTERIZERSTATES.OBJ
C:\USERS\DNGOI\SOURCE\REPOS\DNGOINS\HOLOLENSCOMPANIONKIT\REMOTINGHOSTSAMPLE\LIBRARY\OBJ\X64\DEBUG\RENDERSTATEHELPER.OBJ
C:\USERS\DNGOI\SOURCE\REPOS\DNGOINS\HOLOLENSCOMPANIONKIT\REMOTINGHOSTSAMPLE\LIBRARY\OBJ\X64\DEBUG\RENDERTARGET.OBJ
C:\USERS\DNGOI\SOURCE\REPOS\DNGOINS\HOLOLENSCOMPANIONKIT\REMOTINGHOSTSAMPLE\LIBRARY\OBJ\X64\DEBUG\SAMPLERSTATES.OBJ
C:\USERS\DNGOI\SOURCE\REPOS\DNGOINS\HOLOLENSCOMPANIONKIT\REMOTINGHOSTSAMPLE\LIBRARY\OBJ\X64\DEBUG\SERVICECONTAINER.OBJ
C:\USERS\DNGOI\SOURCE\REPOS\DNGOINS\HOLOLENSCOMPANIONKIT\REMOTINGHOSTSAMPLE\LIBRARY\OBJ\X64\DEBUG\SKYBOX.OBJ
C:\USERS\DNGOI\SOURCE\REPOS\DNGOINS\HOLOLENSCOMPANIONKIT\REMOTINGHOSTSAMPLE\LIBRARY\OBJ\X64\DEBUG\SPOTLIGHT.OBJ
C:\USERS\DNGOI\SOURCE\REPOS\DNGOINS\HOLOLENSCOMPANIONKIT\REMOTINGHOSTSAMPLE\LIBRARY\OBJ\X64\DEBUG\UTILITY.OBJ
C:\USERS\DNGOI\SOURCE\REPOS\DNGOINS\HOLOLENSCOMPANIONKIT\REMOTINGHOSTSAMPLE\LIBRARY\OBJ\X64\DEBUG\VECTORHELPER.OBJ
