^C:\USERS\DNGOI\SOURCE\REPOS\DNGOINS\HOLOLENSCOMPANIONKIT\REMOTINGHOSTSAMPLE\LIBRARY\CONTENT\EFFECTS\BASICPS.HLSL
/nologo /T ps_5_0 /Fo "C:\Users\dngoi\Source\Repos\dngoins\HoloLensCompanionKit\RemotingHostSample\Library\bin\Win32\Debug\Content\Effects\BasicPS.cso" /Od /Zi C:\USERS\DNGOI\SOURCE\REPOS\DNGOINS\HOLOLENSCOMPANIONKIT\REMOTINGHOSTSAMPLE\LIBRARY\CONTENT\EFFECTS\BASICPS.HLSL
^C:\USERS\DNGOI\SOURCE\REPOS\DNGOINS\HOLOLENSCOMPANIONKIT\REMOTINGHOSTSAMPLE\LIBRARY\CONTENT\EFFECTS\BASICVS.HLSL
/nologo /T vs_5_0 /Fo "C:\Users\dngoi\Source\Repos\dngoins\HoloLensCompanionKit\RemotingHostSample\Library\bin\Win32\Debug\Content\Effects\BasicVS.cso" /Od /Zi C:\USERS\DNGOI\SOURCE\REPOS\DNGOINS\HOLOLENSCOMPANIONKIT\REMOTINGHOSTSAMPLE\LIBRARY\CONTENT\EFFECTS\BASICVS.HLSL
^C:\USERS\DNGOI\SOURCE\REPOS\DNGOINS\HOLOLENSCOMPANIONKIT\REMOTINGHOSTSAMPLE\LIBRARY\CONTENT\EFFECTS\SKYBOXPIXELSHADER.HLSL
/nologo /T ps_5_0 /Fo "C:\Users\dngoi\Source\Repos\dngoins\HoloLensCompanionKit\RemotingHostSample\Library\bin\Win32\Debug\Content\Effects\SkyboxPixelShader.cso" /Od /Zi C:\USERS\DNGOI\SOURCE\REPOS\DNGOINS\HOLOLENSCOMPANIONKIT\REMOTINGHOSTSAMPLE\LIBRARY\CONTENT\EFFECTS\SKYBOXPIXELSHADER.HLSL
^C:\USERS\DNGOI\SOURCE\REPOS\DNGOINS\HOLOLENSCOMPANIONKIT\REMOTINGHOSTSAMPLE\LIBRARY\CONTENT\EFFECTS\SKYBOXVERTEXSHADER.HLSL
/nologo /T vs_5_0 /Fo "C:\Users\dngoi\Source\Repos\dngoins\HoloLensCompanionKit\RemotingHostSample\Library\bin\Win32\Debug\Content\Effects\SkyboxVertexShader.cso" /Od /Zi C:\USERS\DNGOI\SOURCE\REPOS\DNGOINS\HOLOLENSCOMPANIONKIT\REMOTINGHOSTSAMPLE\LIBRARY\CONTENT\EFFECTS\SKYBOXVERTEXSHADER.HLSL
