^C:\USERS\DNGOI\SOURCE\REPOS\DNGOINS\HOLOLENSCOMPANIONKIT\REMOTINGHOSTSAMPLE\LIBRARY\CONTENT\EFFECTS\BASICPS.HLSL
C:\PROGRAM FILES (X86)\WINDOWS KITS\8.1\BIN\X86\FXC.EXE
C:\WINDOWS\GLOBALIZATION\SORTING\SORTDEFAULT.NLS
^C:\USERS\DNGOI\SOURCE\REPOS\DNGOINS\HOLOLENSCOMPANIONKIT\REMOTINGHOSTSAMPLE\LIBRARY\CONTENT\EFFECTS\BASICVS.HLSL
C:\PROGRAM FILES (X86)\WINDOWS KITS\8.1\BIN\X86\FXC.EXE
C:\WINDOWS\GLOBALIZATION\SORTING\SORTDEFAULT.NLS
^C:\USERS\DNGOI\SOURCE\REPOS\DNGOINS\HOLOLENSCOMPANIONKIT\REMOTINGHOSTSAMPLE\LIBRARY\CONTENT\EFFECTS\SKYBOXPIXELSHADER.HLSL
C:\PROGRAM FILES (X86)\WINDOWS KITS\8.1\BIN\X86\FXC.EXE
C:\WINDOWS\GLOBALIZATION\SORTING\SORTDEFAULT.NLS
^C:\USERS\DNGOI\SOURCE\REPOS\DNGOINS\HOLOLENSCOMPANIONKIT\REMOTINGHOSTSAMPLE\LIBRARY\CONTENT\EFFECTS\SKYBOXVERTEXSHADER.HLSL
C:\PROGRAM FILES (X86)\WINDOWS KITS\8.1\BIN\X86\FXC.EXE
C:\WINDOWS\GLOBALIZATION\SORTING\SORTDEFAULT.NLS
